# what     Elapsed (s)
std_digitalscan     27.716010566
std_analogscan     21.370121542
diff_tune_globalthreshold     85.427184752
diff_tune_pixelthreshold     46.852512904
diff_retune_globalthreshold     89.068514816
diff_retune_pixelthreshold     47.253161471
lin_tune_globalthreshold     65.318766972
lin_tune_pixelthreshold     68.920108107
lin_retune_globalthreshold     74.650759417
lin_retune_pixelthreshold     47.472630673
syn_tune_globalthreshold     97.150196734
syn_tune_globalthreshold     95.427418890
std_digitalscan     22.150967029
std_analogscan     20.725770135
std_thresholdscan     377.395210509
std_discbumpscan     28.977660647
total_so     1234.045072792
