{
    "Data": [2.0, 2.0, 3.0, 3.0, 16.0, 54.0, 395.0, 1270.0, 2822.0, 4690.0, 5192.0, 4762.0, 3683.0, 3543.0, 4311.0, 5829.0, 6962.0, 7416.0, 7474.0, 6244.0, 4709.0, 3160.0, 1818.0, 953.0, 513.0, 271.0, 142.0, 79.0, 71.0, 61.0, 39.0, 37.0, 41.0, 28.0, 24.0, 22.0],
    "Name": "NoiseDist-0",
    "Overflow": 147.0,
    "Type": "Histo1d",
    "Underflow": 0.0,
    "x": {
        "AxisTitle": "Noise [e]",
        "Bins": 36,
        "High": 181.0,
        "Low": -2.0
    },
    "y": {
        "AxisTitle": "Number of Pixels"
    },
    "z": {
        "AxisTitle": "z"
    }
}