{
    "Data": [1235.0, 16772.0, 22954.0, 16385.0, 9553.0, 5121.0, 2537.0, 1218.0, 487.0, 251.0, 121.0, 50.0, 28.0, 16.0, 13.0, 1.0, 1.0, 1.0, 5.0, 4.0, 4.0, 1.0, 6.0, 0.0, 0.0, 5.0, 1.0, 2.0, 0.0, 10.0, 4.0, 2.0, 0.0, 0.0, 0.0, 2.0, 0.0, 0.0, 0.0, 1.0, 0.0, 0.0, 0.0, 0.0, 0.0, 1.0, 0.0, 0.0, 0.0, 0.0, 0.0],
    "Name": "Chi2Dist-0",
    "Overflow": 0.0,
    "Type": "Histo1d",
    "Underflow": 0.0,
    "x": {
        "AxisTitle": "Fit Chi/ndf",
        "Bins": 51,
        "High": 2.5250000953674318,
        "Low": -0.02500000037252903
    },
    "y": {
        "AxisTitle": "Number of Pixels"
    },
    "z": {
        "AxisTitle": "z"
    }
}