{
    "Data": [787.0, 15014.0, 24755.0, 17400.0, 9708.0, 4835.0, 2269.0, 1046.0, 441.0, 218.0, 88.0, 32.0, 25.0, 15.0, 8.0, 10.0, 10.0, 10.0, 5.0, 10.0, 6.0, 8.0, 11.0, 10.0, 6.0, 10.0, 2.0, 5.0, 17.0, 1.0, 4.0, 2.0, 2.0, 5.0, 1.0, 4.0, 1.0, 0.0, 0.0, 0.0, 1.0, 5.0, 0.0, 1.0, 0.0, 0.0, 0.0, 1.0, 0.0, 2.0, 0.0],
    "Name": "Chi2Dist-0",
    "Overflow": 0.0,
    "Type": "Histo1d",
    "Underflow": 0.0,
    "x": {
        "AxisTitle": "Fit Chi/ndf",
        "Bins": 51,
        "High": 2.5250000953674318,
        "Low": -0.02500000037252903
    },
    "y": {
        "AxisTitle": "Number of Pixels"
    },
    "z": {
        "AxisTitle": "z"
    }
}