{
    "Data": [[0.0, 0.0, 0.0, 0.0, 0.0, 0.0, 0.0, 0.0, 0.0, 0.0, 0.0, 0.0, 0.0, 0.0, 0.0, 0.0, 0.0, 0.0, 0.0, 0.0, 0.0, 0.0, 0.0, 0.0, 0.0, 0.0, 0.0, 0.0, 0.0, 0.0, 0.0, 0.0, 0.0, 0.0, 0.0, 0.0, 0.0, 0.0, 0.0, 0.0, 0.0, 0.0, 0.0, 0.0, 0.0, 0.0, 0.0, 0.0, 0.0], [0.0, 0.0, 0.0, 0.0, 0.0, 0.0, 0.0, 0.0, 0.0, 0.0, 0.0, 0.0, 0.0, 0.0, 0.0, 0.0, 0.0, 0.0, 0.0, 0.0, 0.0, 0.0, 0.0, 0.0, 0.0, 0.0, 0.0, 0.0, 0.0, 0.0, 0.0, 0.0, 0.0, 0.0, 0.0, 0.0, 0.0, 0.0, 0.0, 0.0, 0.0, 0.0, 0.0, 0.0, 0.0, 0.0, 0.0, 0.0, 0.0], [0.0, 0.0, 0.0, 0.0, 0.0, 0.0, 0.0, 0.0, 0.0, 0.0, 0.0, 0.0, 0.0, 0.0, 0.0, 0.0, 0.0, 0.0, 0.0, 0.0, 0.0, 0.0, 0.0, 0.0, 0.0, 0.0, 0.0, 0.0, 0.0, 0.0, 0.0, 0.0, 0.0, 0.0, 0.0, 0.0, 0.0, 0.0, 0.0, 0.0, 0.0, 0.0, 0.0, 0.0, 0.0, 0.0, 0.0, 0.0, 0.0], [0.0, 0.0, 0.0, 0.0, 0.0, 0.0, 0.0, 0.0, 0.0, 0.0, 0.0, 0.0, 0.0, 0.0, 0.0, 0.0, 0.0, 0.0, 0.0, 0.0, 0.0, 0.0, 0.0, 0.0, 0.0, 0.0, 0.0, 0.0, 0.0, 0.0, 0.0, 0.0, 0.0, 0.0, 0.0, 0.0, 0.0, 0.0, 0.0, 0.0, 0.0, 0.0, 0.0, 0.0, 0.0, 0.0, 0.0, 0.0, 0.0], [1.0, 1.0, 0.0, 0.0, 0.0, 0.0, 0.0, 0.0, 0.0, 0.0, 0.0, 0.0, 0.0, 0.0, 0.0, 0.0, 0.0, 0.0, 0.0, 0.0, 0.0, 0.0, 0.0, 0.0, 0.0, 0.0, 0.0, 0.0, 0.0, 0.0, 0.0, 0.0, 0.0, 0.0, 0.0, 0.0, 0.0, 0.0, 0.0, 0.0, 0.0, 0.0, 0.0, 0.0, 0.0, 0.0, 0.0, 0.0, 0.0], [1.0, 0.0, 2.0, 0.0, 0.0, 0.0, 0.0, 0.0, 0.0, 0.0, 0.0, 0.0, 0.0, 0.0, 0.0, 0.0, 0.0, 0.0, 0.0, 0.0, 0.0, 0.0, 0.0, 0.0, 0.0, 0.0, 0.0, 0.0, 0.0, 0.0, 0.0, 0.0, 0.0, 0.0, 0.0, 0.0, 0.0, 0.0, 0.0, 0.0, 0.0, 0.0, 0.0, 0.0, 0.0, 0.0, 0.0, 0.0, 0.0], [2.0, 0.0, 0.0, 1.0, 0.0, 1.0, 0.0, 0.0, 0.0, 0.0, 0.0, 0.0, 0.0, 1.0, 0.0, 0.0, 0.0, 0.0, 0.0, 0.0, 0.0, 0.0, 0.0, 0.0, 0.0, 0.0, 0.0, 0.0, 0.0, 0.0, 0.0, 0.0, 0.0, 0.0, 0.0, 0.0, 0.0, 0.0, 0.0, 0.0, 0.0, 0.0, 0.0, 0.0, 0.0, 0.0, 0.0, 0.0, 0.0], [1.0, 0.0, 0.0, 0.0, 0.0, 0.0, 0.0, 0.0, 0.0, 0.0, 0.0, 0.0, 0.0, 0.0, 0.0, 1.0, 0.0, 0.0, 1.0, 0.0, 0.0, 1.0, 0.0, 0.0, 0.0, 0.0, 0.0, 0.0, 0.0, 0.0, 1.0, 0.0, 0.0, 0.0, 0.0, 0.0, 0.0, 0.0, 0.0, 0.0, 0.0, 0.0, 0.0, 0.0, 0.0, 0.0, 0.0, 0.0, 0.0], [1.0, 3.0, 0.0, 0.0, 0.0, 0.0, 0.0, 0.0, 0.0, 0.0, 0.0, 0.0, 0.0, 0.0, 0.0, 0.0, 0.0, 0.0, 0.0, 0.0, 0.0, 0.0, 0.0, 0.0, 0.0, 0.0, 0.0, 1.0, 1.0, 0.0, 0.0, 0.0, 0.0, 0.0, 1.0, 0.0, 0.0, 0.0, 1.0, 0.0, 0.0, 0.0, 0.0, 0.0, 0.0, 0.0, 0.0, 0.0, 0.0], [6.0, 3.0, 3.0, 1.0, 1.0, 0.0, 0.0, 1.0, 0.0, 0.0, 0.0, 0.0, 0.0, 0.0, 0.0, 0.0, 0.0, 0.0, 0.0, 0.0, 0.0, 0.0, 0.0, 0.0, 0.0, 0.0, 0.0, 0.0, 0.0, 0.0, 0.0, 0.0, 0.0, 0.0, 0.0, 0.0, 0.0, 0.0, 0.0, 0.0, 0.0, 0.0, 0.0, 0.0, 2.0, 0.0, 1.0, 1.0, 0.0], [6.0, 9.0, 5.0, 2.0, 1.0, 1.0, 0.0, 1.0, 0.0, 1.0, 1.0, 0.0, 0.0, 0.0, 0.0, 0.0, 0.0, 0.0, 0.0, 0.0, 0.0, 0.0, 0.0, 0.0, 1.0, 0.0, 0.0, 0.0, 0.0, 0.0, 0.0, 0.0, 0.0, 0.0, 0.0, 0.0, 0.0, 0.0, 0.0, 0.0, 0.0, 0.0, 0.0, 0.0, 0.0, 0.0, 0.0, 2.0, 0.0], [10.0, 3.0, 2.0, 0.0, 1.0, 7.0, 0.0, 0.0, 3.0, 2.0, 0.0, 0.0, 0.0, 2.0, 0.0, 1.0, 0.0, 2.0, 0.0, 0.0, 0.0, 0.0, 0.0, 0.0, 2.0, 0.0, 1.0, 0.0, 0.0, 0.0, 0.0, 0.0, 0.0, 0.0, 0.0, 0.0, 0.0, 0.0, 0.0, 0.0, 0.0, 0.0, 0.0, 0.0, 0.0, 0.0, 0.0, 0.0, 0.0], [15.0, 10.0, 7.0, 3.0, 5.0, 2.0, 0.0, 0.0, 2.0, 2.0, 2.0, 1.0, 0.0, 0.0, 1.0, 1.0, 1.0, 0.0, 1.0, 1.0, 1.0, 2.0, 0.0, 0.0, 1.0, 0.0, 0.0, 3.0, 0.0, 3.0, 0.0, 0.0, 0.0, 0.0, 0.0, 0.0, 0.0, 0.0, 0.0, 0.0, 1.0, 0.0, 1.0, 0.0, 1.0, 0.0, 0.0, 0.0, 0.0], [21.0, 3.0, 4.0, 5.0, 7.0, 4.0, 5.0, 4.0, 2.0, 4.0, 0.0, 1.0, 0.0, 1.0, 2.0, 1.0, 1.0, 2.0, 0.0, 1.0, 1.0, 1.0, 1.0, 0.0, 1.0, 1.0, 1.0, 0.0, 0.0, 1.0, 2.0, 1.0, 1.0, 1.0, 0.0, 0.0, 1.0, 2.0, 0.0, 1.0, 0.0, 2.0, 0.0, 2.0, 0.0, 2.0, 1.0, 1.0, 0.0], [19.0, 10.0, 8.0, 10.0, 2.0, 3.0, 0.0, 1.0, 1.0, 1.0, 3.0, 4.0, 2.0, 3.0, 1.0, 2.0, 2.0, 4.0, 5.0, 3.0, 2.0, 2.0, 2.0, 2.0, 2.0, 2.0, 0.0, 2.0, 0.0, 0.0, 2.0, 0.0, 1.0, 2.0, 1.0, 0.0, 0.0, 0.0, 0.0, 0.0, 1.0, 1.0, 0.0, 1.0, 5.0, 2.0, 1.0, 1.0, 6.0], [38.0, 15.0, 12.0, 7.0, 4.0, 12.0, 4.0, 2.0, 7.0, 1.0, 3.0, 4.0, 1.0, 3.0, 2.0, 1.0, 0.0, 1.0, 1.0, 1.0, 0.0, 0.0, 1.0, 0.0, 3.0, 3.0, 0.0, 4.0, 4.0, 5.0, 4.0, 2.0, 2.0, 1.0, 2.0, 4.0, 2.0, 1.0, 1.0, 3.0, 2.0, 0.0, 0.0, 2.0, 0.0, 3.0, 0.0, 2.0, 3.0], [62.0, 28.0, 18.0, 10.0, 8.0, 4.0, 6.0, 6.0, 4.0, 4.0, 5.0, 2.0, 6.0, 3.0, 5.0, 2.0, 2.0, 3.0, 3.0, 4.0, 3.0, 0.0, 5.0, 3.0, 2.0, 0.0, 4.0, 3.0, 1.0, 0.0, 1.0, 1.0, 1.0, 1.0, 0.0, 3.0, 0.0, 3.0, 2.0, 0.0, 6.0, 5.0, 8.0, 4.0, 4.0, 3.0, 3.0, 3.0, 6.0], [84.0, 46.0, 18.0, 19.0, 11.0, 11.0, 7.0, 8.0, 9.0, 9.0, 7.0, 4.0, 5.0, 5.0, 3.0, 7.0, 4.0, 2.0, 2.0, 2.0, 5.0, 4.0, 2.0, 7.0, 3.0, 3.0, 3.0, 5.0, 3.0, 1.0, 4.0, 2.0, 5.0, 1.0, 2.0, 3.0, 4.0, 1.0, 2.0, 4.0, 1.0, 2.0, 2.0, 3.0, 4.0, 3.0, 4.0, 12.0, 13.0], [242.0, 75.0, 42.0, 17.0, 19.0, 10.0, 13.0, 14.0, 7.0, 7.0, 8.0, 9.0, 6.0, 8.0, 6.0, 8.0, 3.0, 6.0, 6.0, 5.0, 3.0, 4.0, 6.0, 5.0, 2.0, 3.0, 5.0, 4.0, 4.0, 4.0, 6.0, 3.0, 3.0, 4.0, 5.0, 7.0, 6.0, 2.0, 5.0, 3.0, 3.0, 4.0, 3.0, 3.0, 7.0, 6.0, 10.0, 9.0, 9.0], [515.0, 144.0, 68.0, 52.0, 37.0, 21.0, 25.0, 22.0, 17.0, 14.0, 13.0, 17.0, 5.0, 5.0, 6.0, 8.0, 4.0, 12.0, 5.0, 10.0, 3.0, 6.0, 9.0, 5.0, 10.0, 6.0, 2.0, 8.0, 4.0, 4.0, 6.0, 5.0, 4.0, 2.0, 4.0, 8.0, 5.0, 9.0, 6.0, 5.0, 5.0, 5.0, 8.0, 5.0, 5.0, 9.0, 11.0, 15.0, 15.0], [1250.0, 358.0, 216.0, 121.0, 66.0, 66.0, 46.0, 50.0, 33.0, 21.0, 19.0, 19.0, 19.0, 14.0, 23.0, 10.0, 12.0, 16.0, 11.0, 10.0, 9.0, 10.0, 16.0, 10.0, 8.0, 5.0, 9.0, 9.0, 2.0, 5.0, 6.0, 5.0, 5.0, 10.0, 4.0, 6.0, 7.0, 7.0, 13.0, 3.0, 10.0, 11.0, 12.0, 10.0, 7.0, 15.0, 11.0, 18.0, 24.0], [2467.0, 952.0, 475.0, 304.0, 180.0, 160.0, 101.0, 92.0, 55.0, 56.0, 51.0, 51.0, 42.0, 36.0, 18.0, 30.0, 27.0, 21.0, 20.0, 19.0, 13.0, 16.0, 18.0, 16.0, 10.0, 18.0, 7.0, 8.0, 16.0, 6.0, 13.0, 6.0, 11.0, 16.0, 15.0, 10.0, 12.0, 15.0, 4.0, 12.0, 8.0, 12.0, 9.0, 14.0, 17.0, 22.0, 13.0, 21.0, 32.0], [4862.0, 1857.0, 1058.0, 742.0, 505.0, 353.0, 324.0, 238.0, 192.0, 154.0, 155.0, 114.0, 94.0, 75.0, 73.0, 59.0, 62.0, 62.0, 50.0, 53.0, 42.0, 29.0, 33.0, 21.0, 33.0, 26.0, 22.0, 28.0, 19.0, 27.0, 15.0, 26.0, 17.0, 21.0, 23.0, 21.0, 25.0, 13.0, 20.0, 16.0, 17.0, 12.0, 20.0, 17.0, 18.0, 23.0, 20.0, 28.0, 48.0], [8609.0, 3749.0, 2109.0, 1369.0, 1035.0, 800.0, 596.0, 532.0, 422.0, 371.0, 340.0, 271.0, 228.0, 227.0, 205.0, 180.0, 153.0, 119.0, 121.0, 108.0, 108.0, 97.0, 82.0, 100.0, 63.0, 73.0, 59.0, 54.0, 56.0, 53.0, 52.0, 40.0, 54.0, 53.0, 42.0, 32.0, 42.0, 43.0, 25.0, 30.0, 32.0, 24.0, 23.0, 28.0, 40.0, 39.0, 41.0, 54.0, 73.0], [11489.0, 6799.0, 4652.0, 3223.0, 2350.0, 1684.0, 1301.0, 1047.0, 881.0, 779.0, 656.0, 595.0, 491.0, 466.0, 391.0, 380.0, 353.0, 329.0, 306.0, 260.0, 264.0, 243.0, 212.0, 200.0, 152.0, 174.0, 171.0, 173.0, 152.0, 126.0, 111.0, 137.0, 109.0, 95.0, 87.0, 85.0, 91.0, 93.0, 96.0, 83.0, 80.0, 77.0, 67.0, 74.0, 69.0, 66.0, 65.0, 82.0, 117.0], [8573.0, 7142.0, 5904.0, 5027.0, 4270.0, 3695.0, 3102.0, 2725.0, 2340.0, 1913.0, 1765.0, 1479.0, 1280.0, 1114.0, 992.0, 925.0, 774.0, 756.0, 653.0, 585.0, 557.0, 503.0, 458.0, 468.0, 413.0, 407.0, 384.0, 361.0, 300.0, 296.0, 302.0, 268.0, 255.0, 261.0, 260.0, 232.0, 213.0, 213.0, 197.0, 191.0, 180.0, 196.0, 150.0, 189.0, 183.0, 144.0, 150.0, 191.0, 203.0], [2549.0, 2473.0, 2413.0, 2330.0, 2470.0, 2619.0, 2686.0, 2676.0, 2814.0, 2850.0, 2801.0, 2845.0, 2729.0, 2685.0, 2558.0, 2402.0, 2262.0, 2180.0, 2013.0, 1910.0, 1712.0, 1592.0, 1359.0, 1250.0, 1136.0, 998.0, 998.0, 865.0, 865.0, 787.0, 700.0, 663.0, 685.0, 648.0, 656.0, 606.0, 578.0, 531.0, 538.0, 520.0, 509.0, 465.0, 472.0, 428.0, 413.0, 415.0, 412.0, 414.0, 477.0], [684.0, 714.0, 788.0, 799.0, 853.0, 909.0, 934.0, 935.0, 1000.0, 1055.0, 1028.0, 1035.0, 1130.0, 1125.0, 1180.0, 1281.0, 1406.0, 1433.0, 1562.0, 1675.0, 1719.0, 1860.0, 1923.0, 1986.0, 2074.0, 2164.0, 2234.0, 2258.0, 2229.0, 2252.0, 2304.0, 2207.0, 2161.0, 2093.0, 1989.0, 1903.0, 1805.0, 1692.0, 1595.0, 1454.0, 1455.0, 1315.0, 1288.0, 1197.0, 1259.0, 1193.0, 1173.0, 1231.0, 1264.0], [259.0, 198.0, 220.0, 242.0, 253.0, 273.0, 288.0, 308.0, 298.0, 373.0, 399.0, 443.0, 467.0, 478.0, 487.0, 519.0, 569.0, 600.0, 599.0, 709.0, 720.0, 677.0, 728.0, 796.0, 879.0, 914.0, 1001.0, 1078.0, 1161.0, 1217.0, 1331.0, 1421.0, 1572.0, 1689.0, 1835.0, 1930.0, 2048.0, 2334.0, 2483.0, 2695.0, 2727.0, 2972.0, 3157.0, 3317.0, 3513.0, 3881.0, 3949.0, 4186.0, 4550.0], [145.0, 104.0, 77.0, 107.0, 96.0, 85.0, 101.0, 103.0, 123.0, 124.0, 132.0, 122.0, 166.0, 164.0, 188.0, 168.0, 218.0, 238.0, 242.0, 245.0, 278.0, 299.0, 333.0, 343.0, 378.0, 415.0, 453.0, 477.0, 525.0, 535.0, 550.0, 665.0, 677.0, 710.0, 888.0, 925.0, 1006.0, 1194.0, 1342.0, 1520.0, 1738.0, 2179.0, 2456.0, 2887.0, 3409.0, 4026.0, 5029.0, 6499.0, 9442.0], [82.0, 62.0, 48.0, 54.0, 40.0, 52.0, 32.0, 45.0, 41.0, 48.0, 54.0, 49.0, 46.0, 54.0, 59.0, 65.0, 63.0, 90.0, 84.0, 112.0, 111.0, 107.0, 124.0, 124.0, 141.0, 162.0, 160.0, 177.0, 206.0, 206.0, 237.0, 266.0, 300.0, 335.0, 375.0, 426.0, 454.0, 519.0, 640.0, 709.0, 796.0, 997.0, 1219.0, 1431.0, 1874.0, 2592.0, 3758.0, 5635.0, 10243.0], [63.0, 49.0, 32.0, 30.0, 26.0, 30.0, 32.0, 29.0, 22.0, 31.0, 27.0, 23.0, 46.0, 24.0, 32.0, 21.0, 25.0, 24.0, 40.0, 34.0, 44.0, 40.0, 50.0, 52.0, 58.0, 45.0, 63.0, 62.0, 80.0, 82.0, 95.0, 94.0, 126.0, 149.0, 155.0, 158.0, 201.0, 213.0, 282.0, 359.0, 389.0, 475.0, 573.0, 702.0, 906.0, 1309.0, 1876.0, 3207.0, 7675.0], [44.0, 35.0, 29.0, 16.0, 20.0, 28.0, 31.0, 33.0, 20.0, 16.0, 15.0, 12.0, 21.0, 13.0, 35.0, 17.0, 15.0, 23.0, 37.0, 26.0, 13.0, 15.0, 29.0, 27.0, 22.0, 24.0, 24.0, 35.0, 28.0, 62.0, 48.0, 53.0, 47.0, 58.0, 52.0, 74.0, 78.0, 97.0, 96.0, 138.0, 158.0, 184.0, 220.0, 305.0, 404.0, 563.0, 867.0, 1629.0, 4436.0], [31.0, 21.0, 38.0, 17.0, 38.0, 15.0, 10.0, 13.0, 18.0, 13.0, 13.0, 14.0, 11.0, 12.0, 14.0, 15.0, 11.0, 13.0, 11.0, 8.0, 13.0, 14.0, 7.0, 13.0, 12.0, 13.0, 16.0, 13.0, 17.0, 22.0, 20.0, 18.0, 27.0, 32.0, 31.0, 31.0, 41.0, 38.0, 49.0, 61.0, 75.0, 77.0, 104.0, 124.0, 165.0, 263.0, 393.0, 767.0, 2211.0], [27.0, 20.0, 14.0, 21.0, 13.0, 8.0, 8.0, 8.0, 8.0, 13.0, 7.0, 10.0, 5.0, 7.0, 9.0, 7.0, 7.0, 9.0, 10.0, 7.0, 15.0, 49.0, 18.0, 11.0, 11.0, 13.0, 9.0, 6.0, 17.0, 7.0, 13.0, 9.0, 17.0, 7.0, 17.0, 21.0, 26.0, 18.0, 30.0, 31.0, 38.0, 44.0, 43.0, 64.0, 80.0, 122.0, 201.0, 343.0, 1039.0], [27.0, 32.0, 16.0, 5.0, 10.0, 4.0, 11.0, 8.0, 4.0, 4.0, 5.0, 11.0, 8.0, 6.0, 7.0, 30.0, 3.0, 10.0, 9.0, 6.0, 7.0, 12.0, 3.0, 5.0, 11.0, 9.0, 9.0, 8.0, 6.0, 4.0, 7.0, 13.0, 13.0, 15.0, 13.0, 30.0, 35.0, 19.0, 13.0, 17.0, 16.0, 25.0, 34.0, 40.0, 33.0, 64.0, 87.0, 200.0, 469.0], [27.0, 11.0, 10.0, 9.0, 8.0, 29.0, 5.0, 3.0, 8.0, 6.0, 2.0, 4.0, 5.0, 2.0, 2.0, 9.0, 6.0, 2.0, 2.0, 27.0, 14.0, 5.0, 7.0, 5.0, 3.0, 7.0, 4.0, 6.0, 14.0, 7.0, 6.0, 6.0, 7.0, 6.0, 7.0, 7.0, 7.0, 12.0, 10.0, 16.0, 8.0, 15.0, 21.0, 26.0, 34.0, 35.0, 54.0, 101.0, 266.0], [7.0, 10.0, 9.0, 8.0, 8.0, 5.0, 9.0, 6.0, 6.0, 4.0, 6.0, 5.0, 4.0, 3.0, 8.0, 4.0, 5.0, 5.0, 2.0, 2.0, 5.0, 1.0, 2.0, 1.0, 4.0, 1.0, 7.0, 6.0, 5.0, 8.0, 6.0, 6.0, 6.0, 7.0, 7.0, 6.0, 4.0, 9.0, 11.0, 5.0, 8.0, 7.0, 11.0, 18.0, 20.0, 24.0, 38.0, 66.0, 172.0], [6.0, 9.0, 7.0, 6.0, 3.0, 7.0, 8.0, 4.0, 3.0, 2.0, 4.0, 4.0, 7.0, 2.0, 3.0, 5.0, 6.0, 5.0, 6.0, 2.0, 4.0, 2.0, 3.0, 4.0, 1.0, 5.0, 4.0, 4.0, 3.0, 5.0, 1.0, 5.0, 4.0, 3.0, 5.0, 5.0, 2.0, 2.0, 8.0, 5.0, 6.0, 10.0, 10.0, 10.0, 17.0, 16.0, 27.0, 39.0, 89.0], [8.0, 3.0, 4.0, 2.0, 3.0, 3.0, 5.0, 0.0, 1.0, 4.0, 5.0, 1.0, 0.0, 5.0, 6.0, 5.0, 2.0, 3.0, 4.0, 5.0, 7.0, 2.0, 5.0, 3.0, 4.0, 1.0, 2.0, 2.0, 4.0, 1.0, 3.0, 4.0, 4.0, 5.0, 1.0, 4.0, 5.0, 6.0, 6.0, 6.0, 10.0, 6.0, 4.0, 6.0, 7.0, 10.0, 10.0, 32.0, 83.0], [5.0, 2.0, 3.0, 2.0, 0.0, 2.0, 1.0, 1.0, 4.0, 1.0, 1.0, 3.0, 2.0, 3.0, 1.0, 2.0, 1.0, 2.0, 0.0, 2.0, 3.0, 4.0, 4.0, 4.0, 2.0, 6.0, 3.0, 4.0, 2.0, 1.0, 2.0, 4.0, 1.0, 4.0, 3.0, 1.0, 2.0, 10.0, 6.0, 8.0, 4.0, 4.0, 8.0, 5.0, 8.0, 12.0, 9.0, 15.0, 54.0], [1.0, 2.0, 2.0, 0.0, 0.0, 4.0, 2.0, 1.0, 1.0, 0.0, 3.0, 2.0, 0.0, 0.0, 2.0, 2.0, 1.0, 2.0, 2.0, 0.0, 1.0, 2.0, 2.0, 2.0, 1.0, 1.0, 5.0, 1.0, 4.0, 2.0, 2.0, 2.0, 2.0, 2.0, 0.0, 5.0, 4.0, 3.0, 2.0, 8.0, 5.0, 3.0, 7.0, 9.0, 12.0, 8.0, 11.0, 14.0, 26.0], [3.0, 1.0, 1.0, 2.0, 1.0, 1.0, 0.0, 3.0, 1.0, 2.0, 3.0, 1.0, 0.0, 2.0, 1.0, 1.0, 0.0, 0.0, 0.0, 0.0, 2.0, 0.0, 1.0, 4.0, 2.0, 1.0, 1.0, 3.0, 1.0, 1.0, 1.0, 0.0, 0.0, 4.0, 4.0, 0.0, 3.0, 3.0, 1.0, 5.0, 1.0, 6.0, 4.0, 5.0, 7.0, 9.0, 11.0, 14.0, 27.0], [3.0, 1.0, 2.0, 0.0, 0.0, 1.0, 1.0, 2.0, 0.0, 2.0, 0.0, 0.0, 0.0, 0.0, 0.0, 2.0, 0.0, 0.0, 0.0, 2.0, 1.0, 1.0, 1.0, 2.0, 1.0, 1.0, 1.0, 1.0, 0.0, 2.0, 0.0, 2.0, 3.0, 1.0, 2.0, 2.0, 1.0, 1.0, 2.0, 0.0, 2.0, 1.0, 0.0, 5.0, 6.0, 8.0, 10.0, 17.0, 22.0], [1.0, 2.0, 1.0, 0.0, 1.0, 2.0, 1.0, 0.0, 1.0, 1.0, 0.0, 0.0, 1.0, 0.0, 0.0, 0.0, 0.0, 1.0, 0.0, 0.0, 1.0, 2.0, 0.0, 1.0, 1.0, 0.0, 2.0, 0.0, 0.0, 1.0, 1.0, 1.0, 0.0, 2.0, 0.0, 1.0, 1.0, 6.0, 0.0, 1.0, 1.0, 3.0, 2.0, 1.0, 6.0, 5.0, 2.0, 8.0, 24.0], [2.0, 0.0, 0.0, 0.0, 1.0, 2.0, 1.0, 0.0, 0.0, 0.0, 0.0, 1.0, 0.0, 0.0, 1.0, 0.0, 0.0, 0.0, 1.0, 0.0, 2.0, 1.0, 0.0, 0.0, 0.0, 0.0, 1.0, 0.0, 0.0, 1.0, 1.0, 0.0, 2.0, 0.0, 0.0, 1.0, 1.0, 1.0, 2.0, 0.0, 1.0, 1.0, 5.0, 3.0, 2.0, 7.0, 3.0, 4.0, 18.0], [1.0, 1.0, 1.0, 0.0, 1.0, 0.0, 0.0, 0.0, 0.0, 2.0, 1.0, 0.0, 0.0, 0.0, 0.0, 0.0, 0.0, 0.0, 1.0, 0.0, 1.0, 1.0, 0.0, 0.0, 1.0, 0.0, 0.0, 1.0, 1.0, 0.0, 1.0, 2.0, 0.0, 0.0, 0.0, 1.0, 0.0, 0.0, 3.0, 0.0, 0.0, 0.0, 0.0, 0.0, 3.0, 3.0, 6.0, 4.0, 16.0], [1.0, 0.0, 2.0, 0.0, 0.0, 0.0, 1.0, 1.0, 0.0, 0.0, 0.0, 0.0, 1.0, 0.0, 0.0, 1.0, 0.0, 0.0, 1.0, 0.0, 0.0, 0.0, 0.0, 0.0, 0.0, 0.0, 0.0, 0.0, 1.0, 0.0, 1.0, 1.0, 0.0, 0.0, 1.0, 0.0, 1.0, 0.0, 1.0, 0.0, 2.0, 0.0, 1.0, 2.0, 0.0, 3.0, 5.0, 3.0, 7.0], [0.0, 0.0, 1.0, 0.0, 1.0, 1.0, 0.0, 0.0, 0.0, 1.0, 0.0, 0.0, 0.0, 0.0, 1.0, 0.0, 0.0, 0.0, 0.0, 0.0, 1.0, 0.0, 1.0, 1.0, 1.0, 0.0, 0.0, 2.0, 0.0, 0.0, 0.0, 0.0, 0.0, 1.0, 0.0, 0.0, 0.0, 0.0, 1.0, 1.0, 0.0, 0.0, 0.0, 1.0, 2.0, 0.0, 3.0, 3.0, 8.0], [0.0, 0.0, 0.0, 0.0, 0.0, 1.0, 0.0, 0.0, 0.0, 2.0, 0.0, 0.0, 1.0, 0.0, 0.0, 0.0, 0.0, 0.0, 0.0, 0.0, 0.0, 0.0, 0.0, 1.0, 0.0, 0.0, 1.0, 0.0, 0.0, 1.0, 0.0, 0.0, 0.0, 1.0, 0.0, 0.0, 1.0, 1.0, 0.0, 0.0, 1.0, 0.0, 0.0, 0.0, 1.0, 2.0, 0.0, 2.0, 7.0], [0.0, 0.0, 0.0, 0.0, 0.0, 0.0, 0.0, 0.0, 0.0, 0.0, 0.0, 1.0, 0.0, 0.0, 0.0, 0.0, 0.0, 0.0, 2.0, 0.0, 2.0, 0.0, 0.0, 0.0, 0.0, 0.0, 0.0, 0.0, 0.0, 0.0, 0.0, 0.0, 0.0, 0.0, 2.0, 1.0, 0.0, 1.0, 0.0, 0.0, 1.0, 0.0, 1.0, 0.0, 0.0, 0.0, 2.0, 1.0, 4.0]],
    "Name": "sCurve-0",
    "Overflow": 1568448.0,
    "Type": "Histo2d",
    "Underflow": 0.0,
    "x": {
        "AxisTitle": "Vcal",
        "Bins": 51,
        "High": 302.5,
        "Low": 47.5
    },
    "y": {
        "AxisTitle": "Occupancy",
        "Bins": 49,
        "High": 49.5,
        "Low": 0.5
    },
    "z": {
        "AxisTitle": "Number of pixels"
    }
}