{
    "Data": [2.0, 2.0, 0.0, 1.0, 4.0, 70.0, 410.0, 1342.0, 3126.0, 4787.0, 5469.0, 4648.0, 3623.0, 3791.0, 4714.0, 5928.0, 7039.0, 7450.0, 6985.0, 5885.0, 4225.0, 2843.0, 1744.0, 1017.0, 516.0, 299.0, 149.0, 107.0, 71.0, 52.0, 53.0, 31.0, 50.0, 52.0, 53.0, 40.0],
    "Name": "NoiseDist-0",
    "Overflow": 214.0,
    "Type": "Histo1d",
    "Underflow": 0.0,
    "x": {
        "AxisTitle": "Noise [e]",
        "Bins": 36,
        "High": 181.0,
        "Low": -2.0
    },
    "y": {
        "AxisTitle": "Number of Pixels"
    },
    "z": {
        "AxisTitle": "z"
    }
}