{
    "Data": [88.0, 76.0, 79.0, 73.0, 84.0, 59.0, 77.0, 87.0, 67.0, 76.0, 76.0, 63.0, 60.0, 56.0, 61.0, 70.0, 87.0, 67.0, 64.0, 65.0, 69.0, 66.0, 56.0, 61.0, 73.0, 63.0, 62.0, 65.0, 57.0, 62.0, 51.0, 78.0, 67.0, 61.0, 66.0, 55.0, 58.0, 70.0, 62.0, 49.0, 70.0, 48.0, 59.0, 54.0, 50.0, 55.0, 51.0, 54.0, 56.0, 68.0, 48.0, 75.0, 60.0, 54.0, 55.0, 58.0, 49.0, 63.0, 58.0, 58.0, 48.0, 60.0, 52.0, 62.0, 49.0, 46.0, 53.0, 47.0, 44.0, 56.0, 46.0, 54.0, 47.0, 54.0, 59.0, 66.0, 57.0, 45.0, 48.0, 55.0, 52.0, 54.0, 51.0, 54.0, 56.0, 58.0, 49.0, 59.0, 52.0, 31.0, 42.0, 61.0, 46.0, 59.0, 47.0, 47.0, 42.0, 45.0, 51.0],
    "Name": "OccupancyDist-12",
    "Overflow": 214.0,
    "Type": "Histo1d",
    "Underflow": 70753.0,
    "x": {
        "AxisTitle": "Occupancy",
        "Bins": 99,
        "High": 99.5,
        "Low": 0.5
    },
    "y": {
        "AxisTitle": "Number of Pixels"
    },
    "z": {
        "AxisTitle": "z"
    }
}