{
    "Data": [50.0, 47.0, 63.0, 65.0, 45.0, 68.0, 46.0, 59.0, 45.0, 66.0, 57.0, 64.0, 50.0, 58.0, 64.0, 44.0, 56.0, 58.0, 60.0, 65.0, 47.0, 42.0, 65.0, 62.0, 63.0, 62.0, 44.0, 48.0, 57.0, 62.0, 61.0, 54.0, 53.0, 58.0, 55.0, 61.0, 69.0, 59.0, 54.0, 49.0, 59.0, 54.0, 44.0, 57.0, 55.0, 52.0, 46.0, 62.0, 59.0, 55.0, 55.0, 55.0, 50.0, 43.0, 55.0, 62.0, 61.0, 61.0, 55.0, 57.0, 52.0, 66.0, 61.0, 64.0, 48.0, 47.0, 60.0, 59.0, 59.0, 55.0, 50.0, 58.0, 54.0, 47.0, 56.0, 58.0, 66.0, 77.0, 71.0, 53.0, 58.0, 63.0, 68.0, 44.0, 73.0, 62.0, 54.0, 74.0, 65.0, 58.0, 54.0, 68.0, 69.0, 62.0, 67.0, 64.0, 73.0, 86.0, 79.0],
    "Name": "OccupancyDist-13",
    "Overflow": 305.0,
    "Type": "Histo1d",
    "Underflow": 70741.0,
    "x": {
        "AxisTitle": "Occupancy",
        "Bins": 99,
        "High": 99.5,
        "Low": 0.5
    },
    "y": {
        "AxisTitle": "Number of Pixels"
    },
    "z": {
        "AxisTitle": "z"
    }
}