{
    "Data": [10.0, 6.0, 8.0, 6.0, 6.0, 11.0, 7.0, 8.0, 7.0, 11.0, 12.0, 11.0, 7.0, 19.0, 10.0, 10.0, 16.0, 9.0, 17.0, 17.0, 12.0, 16.0, 11.0, 17.0, 18.0, 24.0, 16.0, 23.0, 19.0, 15.0, 20.0, 22.0, 19.0, 22.0, 26.0, 15.0, 23.0, 23.0, 26.0, 30.0, 50.0, 29.0, 30.0, 33.0, 17.0, 23.0, 29.0, 33.0, 35.0, 30.0, 36.0, 33.0, 33.0, 31.0, 36.0, 43.0, 53.0, 31.0, 43.0, 39.0, 42.0, 52.0, 43.0, 36.0, 61.0, 60.0, 56.0, 66.0, 64.0, 56.0, 46.0, 67.0, 52.0, 59.0, 68.0, 70.0, 66.0, 67.0, 64.0, 78.0, 83.0, 94.0, 70.0, 96.0, 93.0, 91.0, 116.0, 112.0, 112.0, 113.0, 117.0, 148.0, 142.0, 155.0, 154.0, 206.0, 244.0, 256.0, 340.0],
    "Name": "OccupancyDist-11",
    "Overflow": 925.0,
    "Type": "Histo1d",
    "Underflow": 70668.0,
    "x": {
        "AxisTitle": "Occupancy",
        "Bins": 99,
        "High": 99.5,
        "Low": 0.5
    },
    "y": {
        "AxisTitle": "Number of Pixels"
    },
    "z": {
        "AxisTitle": "z"
    }
}