{
    "Data": [645.0, 294.0, 177.0, 127.0, 82.0, 75.0, 41.0, 38.0, 33.0, 29.0, 32.0, 27.0, 23.0, 22.0, 15.0, 13.0, 14.0, 13.0, 8.0, 9.0, 5.0, 8.0, 4.0, 8.0, 7.0, 4.0, 5.0, 6.0, 5.0, 4.0, 5.0, 3.0, 3.0, 6.0, 4.0, 4.0, 3.0, 2.0, 4.0, 2.0, 1.0, 3.0, 1.0, 3.0, 1.0, 1.0, 0.0, 0.0, 1.0, 1.0, 0.0, 1.0, 0.0, 0.0, 3.0, 1.0, 1.0, 1.0, 1.0, 0.0, 0.0, 0.0, 0.0, 0.0, 0.0, 0.0, 0.0, 0.0, 0.0, 0.0, 0.0, 0.0, 1.0, 0.0, 1.0, 0.0, 0.0, 0.0, 0.0, 0.0, 0.0, 0.0, 0.0, 0.0, 0.0, 0.0, 1.0, 0.0, 0.0, 0.0, 0.0, 0.0, 1.0, 1.0, 0.0, 0.0, 0.0, 0.0, 0.0],
    "Name": "OccupancyDist-8",
    "Overflow": 0.0,
    "Type": "Histo1d",
    "Underflow": 74966.0,
    "x": {
        "AxisTitle": "Occupancy",
        "Bins": 99,
        "High": 99.5,
        "Low": 0.5
    },
    "y": {
        "AxisTitle": "Number of Pixels"
    },
    "z": {
        "AxisTitle": "z"
    }
}