{
    "Data": [3.0, 4.0, 5.0, 6.0, 8.0, 5.0, 6.0, 9.0, 15.0, 7.0, 6.0, 11.0, 9.0, 13.0, 16.0, 21.0, 21.0, 20.0, 25.0, 23.0, 35.0, 28.0, 29.0, 33.0, 37.0, 35.0, 39.0, 46.0, 54.0, 40.0, 48.0, 40.0, 49.0, 44.0, 41.0, 44.0, 61.0, 48.0, 46.0, 51.0, 44.0, 56.0, 62.0, 63.0, 73.0, 80.0, 64.0, 74.0, 67.0, 76.0, 56.0, 70.0, 81.0, 95.0, 87.0, 86.0, 97.0, 72.0, 96.0, 88.0, 87.0, 93.0, 83.0, 77.0, 85.0, 74.0, 85.0, 61.0, 79.0, 90.0, 60.0, 80.0, 72.0, 69.0, 79.0, 63.0, 69.0, 85.0, 77.0, 78.0, 72.0, 67.0, 82.0, 86.0, 107.0, 114.0, 98.0, 94.0, 86.0, 88.0, 83.0, 111.0, 84.0, 101.0, 101.0, 119.0, 104.0, 127.0, 98.0],
    "Name": "OccupancyDist-13",
    "Overflow": 201.0,
    "Type": "Histo1d",
    "Underflow": 70663.0,
    "x": {
        "AxisTitle": "Occupancy",
        "Bins": 99,
        "High": 99.5,
        "Low": 0.5
    },
    "y": {
        "AxisTitle": "Number of Pixels"
    },
    "z": {
        "AxisTitle": "z"
    }
}