{
    "Data": [718.0, 324.0, 190.0, 134.0, 100.0, 88.0, 62.0, 48.0, 36.0, 29.0, 24.0, 23.0, 10.0, 13.0, 17.0, 17.0, 16.0, 9.0, 10.0, 8.0, 5.0, 9.0, 7.0, 5.0, 6.0, 5.0, 8.0, 4.0, 5.0, 4.0, 3.0, 5.0, 5.0, 4.0, 2.0, 2.0, 2.0, 0.0, 1.0, 1.0, 2.0, 1.0, 1.0, 1.0, 1.0, 3.0, 0.0, 1.0, 1.0, 2.0, 1.0, 0.0, 1.0, 0.0, 1.0, 1.0, 0.0, 0.0, 0.0, 0.0, 1.0, 0.0, 3.0, 0.0, 0.0, 0.0, 0.0, 0.0, 0.0, 0.0, 0.0, 0.0, 0.0, 0.0, 0.0, 0.0, 0.0, 0.0, 0.0, 0.0, 1.0, 0.0, 0.0, 0.0, 0.0, 0.0, 0.0, 0.0, 0.0, 0.0, 0.0, 0.0, 0.0, 0.0, 0.0, 0.0, 0.0, 0.0, 0.0],
    "Name": "OccupancyDist-10",
    "Overflow": 0.0,
    "Type": "Histo1d",
    "Underflow": 74819.0,
    "x": {
        "AxisTitle": "Occupancy",
        "Bins": 99,
        "High": 99.5,
        "Low": 0.5
    },
    "y": {
        "AxisTitle": "Number of Pixels"
    },
    "z": {
        "AxisTitle": "z"
    }
}