{
    "Data": [122.0, 111.0, 93.0, 110.0, 105.0, 88.0, 81.0, 91.0, 85.0, 83.0, 83.0, 91.0, 80.0, 70.0, 74.0, 82.0, 81.0, 79.0, 75.0, 70.0, 70.0, 79.0, 77.0, 60.0, 59.0, 60.0, 62.0, 60.0, 75.0, 61.0, 68.0, 67.0, 60.0, 62.0, 71.0, 54.0, 62.0, 61.0, 59.0, 54.0, 66.0, 54.0, 66.0, 58.0, 56.0, 55.0, 48.0, 41.0, 45.0, 51.0, 48.0, 54.0, 58.0, 56.0, 70.0, 43.0, 55.0, 50.0, 47.0, 50.0, 54.0, 51.0, 35.0, 52.0, 49.0, 55.0, 49.0, 54.0, 38.0, 43.0, 60.0, 43.0, 44.0, 40.0, 47.0, 52.0, 41.0, 47.0, 37.0, 46.0, 38.0, 34.0, 37.0, 47.0, 47.0, 37.0, 47.0, 29.0, 39.0, 31.0, 34.0, 34.0, 36.0, 52.0, 42.0, 43.0, 46.0, 57.0, 49.0],
    "Name": "OccupancyDist-10",
    "Overflow": 168.0,
    "Type": "Histo1d",
    "Underflow": 70810.0,
    "x": {
        "AxisTitle": "Occupancy",
        "Bins": 99,
        "High": 99.5,
        "Low": 0.5
    },
    "y": {
        "AxisTitle": "Number of Pixels"
    },
    "z": {
        "AxisTitle": "z"
    }
}