{
    "Data": [56.0, 84.0, 106.0, 118.0, 156.0, 130.0, 138.0, 144.0, 143.0, 133.0, 146.0, 125.0, 136.0, 151.0, 156.0, 152.0, 136.0, 138.0, 141.0, 159.0, 170.0, 169.0, 170.0, 176.0, 199.0, 200.0, 198.0, 235.0, 272.0, 304.0, 286.0, 320.0, 308.0, 346.0, 358.0, 391.0, 344.0, 376.0, 404.0, 401.0, 415.0, 463.0, 458.0, 468.0, 480.0, 495.0, 511.0, 458.0, 480.0, 493.0, 491.0, 469.0, 444.0, 461.0, 508.0, 454.0, 465.0, 458.0, 437.0, 401.0, 438.0, 435.0, 356.0, 359.0, 382.0, 337.0, 327.0, 332.0, 325.0, 274.0, 286.0, 262.0, 226.0, 209.0, 211.0, 218.0, 175.0, 165.0, 159.0, 151.0, 179.0, 139.0, 147.0, 134.0, 185.0, 149.0, 151.0, 123.0, 164.0, 133.0, 144.0, 155.0, 145.0, 153.0, 131.0, 125.0, 101.0, 98.0, 68.0],
    "Name": "OccupancyDist-4",
    "Overflow": 96.0,
    "Type": "Histo1d",
    "Underflow": 50869.0,
    "x": {
        "AxisTitle": "Occupancy",
        "Bins": 99,
        "High": 99.5,
        "Low": 0.5
    },
    "y": {
        "AxisTitle": "Number of Pixels"
    },
    "z": {
        "AxisTitle": "z"
    }
}