{
    "Data": [508.0, 296.0, 214.0, 146.0, 135.0, 121.0, 101.0, 98.0, 92.0, 93.0, 74.0, 76.0, 66.0, 75.0, 51.0, 53.0, 55.0, 53.0, 50.0, 57.0, 56.0, 48.0, 49.0, 45.0, 28.0, 40.0, 48.0, 39.0, 40.0, 32.0, 46.0, 39.0, 38.0, 33.0, 38.0, 41.0, 31.0, 40.0, 34.0, 43.0, 40.0, 26.0, 42.0, 41.0, 47.0, 22.0, 39.0, 31.0, 36.0, 45.0, 43.0, 45.0, 38.0, 47.0, 34.0, 35.0, 36.0, 38.0, 41.0, 24.0, 38.0, 45.0, 40.0, 32.0, 33.0, 45.0, 34.0, 30.0, 46.0, 40.0, 36.0, 43.0, 53.0, 41.0, 57.0, 46.0, 45.0, 49.0, 42.0, 49.0, 65.0, 56.0, 63.0, 47.0, 53.0, 65.0, 64.0, 74.0, 63.0, 74.0, 87.0, 103.0, 96.0, 100.0, 144.0, 151.0, 189.0, 267.0, 465.0],
    "Name": "OccupancyDist-0",
    "Overflow": 6280.0,
    "Type": "Histo1d",
    "Underflow": 63478.0,
    "x": {
        "AxisTitle": "Occupancy",
        "Bins": 99,
        "High": 99.5,
        "Low": 0.5
    },
    "y": {
        "AxisTitle": "Number of Pixels"
    },
    "z": {
        "AxisTitle": "z"
    }
}