{
    "Data": [18.0, 20.0, 18.0, 15.0, 23.0, 35.0, 42.0, 37.0, 33.0, 30.0, 37.0, 38.0, 36.0, 45.0, 36.0, 40.0, 34.0, 46.0, 46.0, 46.0, 35.0, 44.0, 62.0, 44.0, 58.0, 43.0, 69.0, 59.0, 77.0, 66.0, 68.0, 74.0, 93.0, 94.0, 69.0, 106.0, 92.0, 82.0, 125.0, 113.0, 111.0, 104.0, 116.0, 128.0, 114.0, 119.0, 123.0, 106.0, 123.0, 124.0, 131.0, 112.0, 116.0, 130.0, 125.0, 100.0, 116.0, 123.0, 122.0, 112.0, 124.0, 101.0, 77.0, 88.0, 101.0, 81.0, 105.0, 78.0, 58.0, 71.0, 60.0, 64.0, 46.0, 38.0, 55.0, 45.0, 47.0, 39.0, 45.0, 39.0, 34.0, 42.0, 38.0, 32.0, 41.0, 34.0, 35.0, 33.0, 37.0, 44.0, 28.0, 40.0, 24.0, 32.0, 37.0, 26.0, 22.0, 17.0, 13.0],
    "Name": "OccupancyDist-13",
    "Overflow": 24.0,
    "Type": "Histo1d",
    "Underflow": 70302.0,
    "x": {
        "AxisTitle": "Occupancy",
        "Bins": 99,
        "High": 99.5,
        "Low": 0.5
    },
    "y": {
        "AxisTitle": "Number of Pixels"
    },
    "z": {
        "AxisTitle": "z"
    }
}