{
    "Data": [120.0, 132.0, 103.0, 130.0, 116.0, 128.0, 132.0, 125.0, 153.0, 172.0, 150.0, 168.0, 152.0, 146.0, 155.0, 163.0, 175.0, 171.0, 183.0, 159.0, 163.0, 156.0, 152.0, 158.0, 135.0, 152.0, 127.0, 135.0, 112.0, 115.0, 123.0, 83.0, 79.0, 98.0, 73.0, 80.0, 83.0, 57.0, 53.0, 68.0, 46.0, 73.0, 47.0, 49.0, 42.0, 28.0, 27.0, 32.0, 29.0, 32.0, 30.0, 28.0, 33.0, 27.0, 28.0, 32.0, 22.0, 37.0, 30.0, 31.0, 30.0, 28.0, 24.0, 18.0, 19.0, 13.0, 27.0, 24.0, 21.0, 23.0, 28.0, 23.0, 16.0, 25.0, 17.0, 24.0, 17.0, 24.0, 18.0, 16.0, 8.0, 8.0, 9.0, 6.0, 11.0, 5.0, 4.0, 5.0, 2.0, 2.0, 3.0, 0.0, 2.0, 0.0, 2.0, 2.0, 1.0, 4.0, 2.0],
    "Name": "OccupancyDist-9",
    "Overflow": 13.0,
    "Type": "Histo1d",
    "Underflow": 70438.0,
    "x": {
        "AxisTitle": "Occupancy",
        "Bins": 99,
        "High": 99.5,
        "Low": 0.5
    },
    "y": {
        "AxisTitle": "Number of Pixels"
    },
    "z": {
        "AxisTitle": "z"
    }
}