{
    "Data": [10.0, 22.0, 20.0, 30.0, 29.0, 30.0, 36.0, 32.0, 35.0, 34.0, 37.0, 36.0, 34.0, 39.0, 43.0, 41.0, 31.0, 48.0, 45.0, 33.0, 42.0, 43.0, 48.0, 59.0, 54.0, 67.0, 73.0, 60.0, 75.0, 75.0, 78.0, 85.0, 77.0, 84.0, 81.0, 88.0, 101.0, 102.0, 117.0, 129.0, 107.0, 118.0, 123.0, 119.0, 110.0, 123.0, 112.0, 110.0, 126.0, 129.0, 99.0, 114.0, 124.0, 124.0, 116.0, 121.0, 122.0, 88.0, 91.0, 116.0, 103.0, 107.0, 104.0, 117.0, 83.0, 78.0, 99.0, 78.0, 73.0, 66.0, 72.0, 49.0, 47.0, 52.0, 42.0, 45.0, 46.0, 44.0, 35.0, 33.0, 52.0, 31.0, 38.0, 25.0, 45.0, 37.0, 33.0, 45.0, 28.0, 33.0, 31.0, 33.0, 25.0, 39.0, 34.0, 29.0, 20.0, 16.0, 9.0],
    "Name": "OccupancyDist-11",
    "Overflow": 24.0,
    "Type": "Histo1d",
    "Underflow": 70305.0,
    "x": {
        "AxisTitle": "Occupancy",
        "Bins": 99,
        "High": 99.5,
        "Low": 0.5
    },
    "y": {
        "AxisTitle": "Number of Pixels"
    },
    "z": {
        "AxisTitle": "z"
    }
}