{
    "Data": [25.0, 26.0, 32.0, 35.0, 35.0, 35.0, 31.0, 30.0, 39.0, 42.0, 33.0, 52.0, 34.0, 29.0, 31.0, 32.0, 47.0, 30.0, 38.0, 35.0, 33.0, 41.0, 47.0, 46.0, 42.0, 56.0, 42.0, 69.0, 62.0, 79.0, 68.0, 81.0, 72.0, 81.0, 92.0, 93.0, 91.0, 90.0, 91.0, 104.0, 98.0, 122.0, 109.0, 109.0, 101.0, 114.0, 127.0, 114.0, 129.0, 124.0, 124.0, 110.0, 121.0, 123.0, 112.0, 128.0, 145.0, 92.0, 120.0, 114.0, 101.0, 108.0, 105.0, 97.0, 89.0, 84.0, 85.0, 78.0, 95.0, 68.0, 64.0, 57.0, 53.0, 54.0, 55.0, 42.0, 45.0, 48.0, 43.0, 42.0, 35.0, 33.0, 34.0, 35.0, 31.0, 29.0, 29.0, 33.0, 53.0, 36.0, 40.0, 41.0, 33.0, 36.0, 33.0, 28.0, 30.0, 26.0, 14.0],
    "Name": "OccupancyDist-15",
    "Overflow": 27.0,
    "Type": "Histo1d",
    "Underflow": 70324.0,
    "x": {
        "AxisTitle": "Occupancy",
        "Bins": 99,
        "High": 99.5,
        "Low": 0.5
    },
    "y": {
        "AxisTitle": "Number of Pixels"
    },
    "z": {
        "AxisTitle": "z"
    }
}