{
    "Data": [22.0, 33.0, 24.0, 29.0, 31.0, 35.0, 41.0, 31.0, 29.0, 42.0, 37.0, 34.0, 35.0, 42.0, 27.0, 50.0, 52.0, 46.0, 33.0, 39.0, 30.0, 50.0, 41.0, 49.0, 38.0, 38.0, 61.0, 46.0, 63.0, 60.0, 69.0, 71.0, 88.0, 99.0, 91.0, 107.0, 93.0, 88.0, 104.0, 85.0, 93.0, 107.0, 102.0, 103.0, 121.0, 132.0, 121.0, 113.0, 115.0, 124.0, 128.0, 124.0, 120.0, 117.0, 127.0, 117.0, 118.0, 109.0, 117.0, 111.0, 126.0, 100.0, 101.0, 102.0, 89.0, 91.0, 86.0, 67.0, 71.0, 72.0, 70.0, 50.0, 50.0, 65.0, 43.0, 50.0, 47.0, 51.0, 43.0, 32.0, 29.0, 35.0, 35.0, 44.0, 27.0, 35.0, 37.0, 32.0, 35.0, 40.0, 39.0, 39.0, 30.0, 29.0, 46.0, 38.0, 28.0, 22.0, 12.0],
    "Name": "OccupancyDist-12",
    "Overflow": 28.0,
    "Type": "Histo1d",
    "Underflow": 70332.0,
    "x": {
        "AxisTitle": "Occupancy",
        "Bins": 99,
        "High": 99.5,
        "Low": 0.5
    },
    "y": {
        "AxisTitle": "Number of Pixels"
    },
    "z": {
        "AxisTitle": "z"
    }
}