{
    "Data": [12.0, 20.0, 23.0, 23.0, 32.0, 22.0, 42.0, 31.0, 33.0, 31.0, 34.0, 27.0, 41.0, 31.0, 40.0, 41.0, 42.0, 46.0, 53.0, 30.0, 32.0, 39.0, 44.0, 47.0, 53.0, 59.0, 63.0, 52.0, 77.0, 91.0, 79.0, 77.0, 79.0, 84.0, 92.0, 82.0, 90.0, 103.0, 121.0, 108.0, 115.0, 97.0, 118.0, 122.0, 120.0, 113.0, 120.0, 117.0, 115.0, 146.0, 119.0, 116.0, 115.0, 114.0, 104.0, 112.0, 125.0, 121.0, 123.0, 127.0, 104.0, 95.0, 85.0, 117.0, 102.0, 83.0, 86.0, 73.0, 72.0, 60.0, 58.0, 59.0, 71.0, 47.0, 44.0, 55.0, 43.0, 38.0, 44.0, 39.0, 44.0, 29.0, 38.0, 31.0, 46.0, 44.0, 22.0, 36.0, 41.0, 26.0, 28.0, 33.0, 36.0, 40.0, 33.0, 26.0, 30.0, 16.0, 12.0],
    "Name": "OccupancyDist-15",
    "Overflow": 27.0,
    "Type": "Histo1d",
    "Underflow": 70302.0,
    "x": {
        "AxisTitle": "Occupancy",
        "Bins": 99,
        "High": 99.5,
        "Low": 0.5
    },
    "y": {
        "AxisTitle": "Number of Pixels"
    },
    "z": {
        "AxisTitle": "z"
    }
}