{
    "Data": [7.0, 4.0, 8.0, 9.0, 9.0, 22.0, 19.0, 16.0, 20.0, 23.0, 23.0, 30.0, 21.0, 36.0, 15.0, 30.0, 24.0, 31.0, 20.0, 30.0, 33.0, 28.0, 37.0, 34.0, 41.0, 36.0, 39.0, 33.0, 46.0, 35.0, 42.0, 50.0, 47.0, 70.0, 70.0, 63.0, 84.0, 80.0, 88.0, 93.0, 102.0, 99.0, 82.0, 88.0, 109.0, 126.0, 101.0, 113.0, 134.0, 115.0, 114.0, 122.0, 119.0, 128.0, 117.0, 119.0, 136.0, 111.0, 134.0, 121.0, 125.0, 130.0, 122.0, 114.0, 139.0, 140.0, 125.0, 139.0, 94.0, 123.0, 106.0, 108.0, 106.0, 98.0, 65.0, 73.0, 67.0, 79.0, 56.0, 47.0, 46.0, 45.0, 44.0, 52.0, 40.0, 44.0, 37.0, 41.0, 37.0, 38.0, 30.0, 35.0, 38.0, 38.0, 41.0, 17.0, 21.0, 13.0, 12.0],
    "Name": "OccupancyDist-15",
    "Overflow": 19.0,
    "Type": "Histo1d",
    "Underflow": 70320.0,
    "x": {
        "AxisTitle": "Occupancy",
        "Bins": 99,
        "High": 99.5,
        "Low": 0.5
    },
    "y": {
        "AxisTitle": "Number of Pixels"
    },
    "z": {
        "AxisTitle": "z"
    }
}