{
    "Data": [9.0, 3.0, 0.0, 3.0, 8.0, 7.0, 7.0, 7.0, 8.0, 18.0, 14.0, 15.0, 18.0, 11.0, 23.0, 26.0, 12.0, 17.0, 18.0, 23.0, 27.0, 24.0, 31.0, 32.0, 29.0, 23.0, 34.0, 29.0, 28.0, 34.0, 32.0, 39.0, 40.0, 41.0, 39.0, 47.0, 53.0, 61.0, 54.0, 59.0, 65.0, 62.0, 66.0, 75.0, 89.0, 83.0, 94.0, 110.0, 88.0, 91.0, 95.0, 99.0, 104.0, 93.0, 121.0, 109.0, 125.0, 127.0, 132.0, 110.0, 120.0, 132.0, 147.0, 125.0, 128.0, 123.0, 148.0, 127.0, 141.0, 130.0, 136.0, 131.0, 129.0, 132.0, 127.0, 136.0, 102.0, 108.0, 99.0, 107.0, 91.0, 65.0, 68.0, 81.0, 61.0, 55.0, 64.0, 43.0, 51.0, 54.0, 50.0, 50.0, 44.0, 46.0, 44.0, 36.0, 34.0, 31.0, 22.0],
    "Name": "OccupancyDist-14",
    "Overflow": 24.0,
    "Type": "Histo1d",
    "Underflow": 70317.0,
    "x": {
        "AxisTitle": "Occupancy",
        "Bins": 99,
        "High": 99.5,
        "Low": 0.5
    },
    "y": {
        "AxisTitle": "Number of Pixels"
    },
    "z": {
        "AxisTitle": "z"
    }
}