{
    "Data": [561.0, 335.0, 230.0, 191.0, 155.0, 161.0, 129.0, 111.0, 118.0, 100.0, 98.0, 90.0, 76.0, 68.0, 77.0, 80.0, 66.0, 64.0, 70.0, 68.0, 52.0, 54.0, 53.0, 61.0, 64.0, 54.0, 66.0, 59.0, 66.0, 55.0, 48.0, 46.0, 52.0, 60.0, 41.0, 44.0, 54.0, 43.0, 42.0, 46.0, 57.0, 41.0, 54.0, 47.0, 41.0, 40.0, 48.0, 46.0, 46.0, 54.0, 58.0, 46.0, 42.0, 39.0, 44.0, 32.0, 49.0, 44.0, 51.0, 38.0, 46.0, 41.0, 49.0, 55.0, 49.0, 49.0, 47.0, 45.0, 63.0, 67.0, 55.0, 58.0, 56.0, 50.0, 50.0, 56.0, 65.0, 58.0, 64.0, 62.0, 62.0, 65.0, 72.0, 62.0, 79.0, 76.0, 83.0, 83.0, 91.0, 93.0, 104.0, 113.0, 142.0, 129.0, 175.0, 212.0, 244.0, 345.0, 604.0],
    "Name": "OccupancyDist-0",
    "Overflow": 9511.0,
    "Type": "Histo1d",
    "Underflow": 58545.0,
    "x": {
        "AxisTitle": "Occupancy",
        "Bins": 99,
        "High": 99.5,
        "Low": 0.5
    },
    "y": {
        "AxisTitle": "Number of Pixels"
    },
    "z": {
        "AxisTitle": "z"
    }
}