{
    "Data": [137.0, 60.0, 52.0, 49.0, 34.0, 37.0, 20.0, 17.0, 14.0, 18.0, 19.0, 19.0, 13.0, 15.0, 12.0, 9.0, 13.0, 13.0, 19.0, 14.0, 11.0, 13.0, 6.0, 11.0, 5.0, 9.0, 6.0, 9.0, 6.0, 7.0, 7.0, 7.0, 8.0, 11.0, 15.0, 9.0, 6.0, 8.0, 4.0, 5.0, 4.0, 7.0, 6.0, 7.0, 9.0, 5.0, 4.0, 6.0, 3.0, 10.0, 5.0, 4.0, 6.0, 5.0, 6.0, 9.0, 7.0, 6.0, 6.0, 5.0, 9.0, 5.0, 5.0, 3.0, 6.0, 2.0, 8.0, 8.0, 8.0, 3.0, 3.0, 5.0, 7.0, 9.0, 10.0, 9.0, 6.0, 8.0, 13.0, 3.0, 9.0, 16.0, 12.0, 11.0, 8.0, 8.0, 5.0, 14.0, 9.0, 10.0, 9.0, 18.0, 19.0, 28.0, 29.0, 23.0, 34.0, 37.0, 76.0],
    "Name": "OccupancyDist-3",
    "Overflow": 604.0,
    "Type": "Histo1d",
    "Underflow": 74824.0,
    "x": {
        "AxisTitle": "Occupancy",
        "Bins": 99,
        "High": 99.5,
        "Low": 0.5
    },
    "y": {
        "AxisTitle": "Number of Pixels"
    },
    "z": {
        "AxisTitle": "z"
    }
}