{
    "Data": [134.0, 83.0, 64.0, 47.0, 38.0, 29.0, 29.0, 41.0, 33.0, 33.0, 16.0, 14.0, 20.0, 22.0, 13.0, 17.0, 15.0, 15.0, 18.0, 17.0, 16.0, 13.0, 9.0, 14.0, 12.0, 13.0, 17.0, 15.0, 12.0, 14.0, 16.0, 13.0, 8.0, 24.0, 11.0, 10.0, 10.0, 8.0, 6.0, 18.0, 21.0, 11.0, 16.0, 11.0, 5.0, 10.0, 10.0, 9.0, 16.0, 10.0, 18.0, 17.0, 10.0, 10.0, 20.0, 6.0, 13.0, 6.0, 18.0, 12.0, 5.0, 12.0, 13.0, 14.0, 9.0, 12.0, 10.0, 14.0, 7.0, 15.0, 11.0, 11.0, 12.0, 16.0, 20.0, 12.0, 12.0, 16.0, 23.0, 12.0, 9.0, 14.0, 16.0, 17.0, 17.0, 18.0, 28.0, 23.0, 22.0, 23.0, 24.0, 23.0, 34.0, 39.0, 47.0, 43.0, 62.0, 87.0, 139.0],
    "Name": "OccupancyDist-10",
    "Overflow": 2504.0,
    "Type": "Histo1d",
    "Underflow": 72149.0,
    "x": {
        "AxisTitle": "Occupancy",
        "Bins": 99,
        "High": 99.5,
        "Low": 0.5
    },
    "y": {
        "AxisTitle": "Number of Pixels"
    },
    "z": {
        "AxisTitle": "z"
    }
}