{
    "Data": [144.0, 98.0, 48.0, 41.0, 26.0, 29.0, 16.0, 27.0, 13.0, 17.0, 21.0, 26.0, 15.0, 10.0, 17.0, 20.0, 15.0, 13.0, 7.0, 14.0, 7.0, 12.0, 16.0, 9.0, 15.0, 7.0, 7.0, 12.0, 8.0, 5.0, 6.0, 7.0, 6.0, 5.0, 12.0, 8.0, 10.0, 8.0, 9.0, 9.0, 9.0, 7.0, 9.0, 5.0, 6.0, 12.0, 7.0, 6.0, 6.0, 8.0, 4.0, 8.0, 4.0, 6.0, 6.0, 7.0, 7.0, 6.0, 6.0, 7.0, 4.0, 4.0, 4.0, 7.0, 8.0, 2.0, 8.0, 14.0, 7.0, 11.0, 6.0, 6.0, 10.0, 8.0, 4.0, 12.0, 6.0, 12.0, 8.0, 6.0, 13.0, 9.0, 10.0, 10.0, 15.0, 12.0, 10.0, 9.0, 17.0, 15.0, 17.0, 15.0, 20.0, 25.0, 14.0, 14.0, 29.0, 48.0, 72.0],
    "Name": "OccupancyDist-6",
    "Overflow": 694.0,
    "Type": "Histo1d",
    "Underflow": 74654.0,
    "x": {
        "AxisTitle": "Occupancy",
        "Bins": 99,
        "High": 99.5,
        "Low": 0.5
    },
    "y": {
        "AxisTitle": "Number of Pixels"
    },
    "z": {
        "AxisTitle": "z"
    }
}