{
    "Data": [132.0, 81.0, 56.0, 37.0, 50.0, 29.0, 34.0, 27.0, 28.0, 27.0, 17.0, 24.0, 23.0, 23.0, 17.0, 16.0, 17.0, 16.0, 13.0, 24.0, 17.0, 13.0, 14.0, 17.0, 18.0, 9.0, 13.0, 12.0, 12.0, 7.0, 9.0, 15.0, 13.0, 10.0, 6.0, 14.0, 7.0, 16.0, 10.0, 17.0, 8.0, 10.0, 13.0, 8.0, 12.0, 15.0, 15.0, 9.0, 10.0, 16.0, 10.0, 10.0, 8.0, 6.0, 12.0, 14.0, 11.0, 10.0, 16.0, 10.0, 10.0, 10.0, 15.0, 9.0, 9.0, 9.0, 14.0, 8.0, 11.0, 17.0, 11.0, 10.0, 13.0, 15.0, 20.0, 19.0, 15.0, 14.0, 14.0, 18.0, 13.0, 24.0, 22.0, 14.0, 14.0, 27.0, 23.0, 17.0, 20.0, 17.0, 32.0, 28.0, 25.0, 29.0, 31.0, 44.0, 56.0, 75.0, 132.0],
    "Name": "OccupancyDist-10",
    "Overflow": 2239.0,
    "Type": "Histo1d",
    "Underflow": 72494.0,
    "x": {
        "AxisTitle": "Occupancy",
        "Bins": 99,
        "High": 99.5,
        "Low": 0.5
    },
    "y": {
        "AxisTitle": "Number of Pixels"
    },
    "z": {
        "AxisTitle": "z"
    }
}