{
    "Data": [20.0, 35.0, 56.0, 83.0, 82.0, 79.0, 110.0, 91.0, 118.0, 103.0, 130.0, 107.0, 107.0, 118.0, 132.0, 140.0, 134.0, 148.0, 139.0, 155.0, 153.0, 152.0, 197.0, 200.0, 193.0, 234.0, 231.0, 263.0, 274.0, 301.0, 328.0, 311.0, 337.0, 427.0, 404.0, 451.0, 458.0, 448.0, 487.0, 513.0, 489.0, 533.0, 520.0, 523.0, 519.0, 487.0, 529.0, 509.0, 503.0, 554.0, 573.0, 505.0, 513.0, 512.0, 489.0, 547.0, 437.0, 484.0, 503.0, 445.0, 460.0, 451.0, 403.0, 399.0, 382.0, 379.0, 364.0, 329.0, 284.0, 226.0, 254.0, 214.0, 195.0, 164.0, 182.0, 173.0, 153.0, 153.0, 120.0, 139.0, 131.0, 142.0, 106.0, 121.0, 114.0, 110.0, 114.0, 122.0, 112.0, 121.0, 100.0, 99.0, 82.0, 84.0, 70.0, 69.0, 62.0, 52.0, 36.0],
    "Name": "OccupancyDist-4",
    "Overflow": 134.0,
    "Type": "Histo1d",
    "Underflow": 50772.0,
    "x": {
        "AxisTitle": "Occupancy",
        "Bins": 99,
        "High": 99.5,
        "Low": 0.5
    },
    "y": {
        "AxisTitle": "Number of Pixels"
    },
    "z": {
        "AxisTitle": "z"
    }
}