{
    "Data": [80.0, 116.0, 151.0, 121.0, 141.0, 152.0, 151.0, 172.0, 128.0, 134.0, 156.0, 121.0, 144.0, 154.0, 152.0, 138.0, 150.0, 157.0, 168.0, 155.0, 156.0, 174.0, 209.0, 188.0, 200.0, 229.0, 212.0, 246.0, 252.0, 288.0, 354.0, 330.0, 354.0, 328.0, 387.0, 443.0, 414.0, 409.0, 440.0, 459.0, 460.0, 498.0, 497.0, 505.0, 488.0, 510.0, 477.0, 452.0, 484.0, 493.0, 455.0, 454.0, 484.0, 475.0, 453.0, 468.0, 454.0, 425.0, 441.0, 435.0, 369.0, 402.0, 369.0, 348.0, 345.0, 307.0, 331.0, 270.0, 260.0, 254.0, 229.0, 207.0, 194.0, 175.0, 182.0, 171.0, 159.0, 161.0, 157.0, 152.0, 157.0, 146.0, 135.0, 145.0, 142.0, 124.0, 141.0, 128.0, 146.0, 156.0, 156.0, 135.0, 134.0, 135.0, 122.0, 118.0, 105.0, 73.0, 60.0],
    "Name": "OccupancyDist-0",
    "Overflow": 100.0,
    "Type": "Histo1d",
    "Underflow": 50879.0,
    "x": {
        "AxisTitle": "Occupancy",
        "Bins": 99,
        "High": 99.5,
        "Low": 0.5
    },
    "y": {
        "AxisTitle": "Number of Pixels"
    },
    "z": {
        "AxisTitle": "z"
    }
}