{
    "Data": [37.0, 59.0, 64.0, 68.0, 97.0, 95.0, 114.0, 113.0, 107.0, 139.0, 129.0, 121.0, 111.0, 140.0, 125.0, 130.0, 148.0, 140.0, 143.0, 179.0, 163.0, 179.0, 202.0, 208.0, 225.0, 230.0, 254.0, 298.0, 333.0, 298.0, 336.0, 360.0, 378.0, 417.0, 406.0, 508.0, 485.0, 449.0, 464.0, 513.0, 481.0, 533.0, 518.0, 497.0, 530.0, 491.0, 503.0, 539.0, 533.0, 505.0, 502.0, 523.0, 463.0, 500.0, 505.0, 530.0, 479.0, 479.0, 454.0, 461.0, 404.0, 422.0, 415.0, 383.0, 390.0, 328.0, 292.0, 313.0, 276.0, 249.0, 225.0, 195.0, 185.0, 179.0, 167.0, 172.0, 135.0, 136.0, 127.0, 121.0, 130.0, 118.0, 113.0, 104.0, 115.0, 105.0, 111.0, 105.0, 120.0, 108.0, 121.0, 95.0, 88.0, 88.0, 62.0, 58.0, 61.0, 50.0, 37.0],
    "Name": "OccupancyDist-0",
    "Overflow": 126.0,
    "Type": "Histo1d",
    "Underflow": 50780.0,
    "x": {
        "AxisTitle": "Occupancy",
        "Bins": 99,
        "High": 99.5,
        "Low": 0.5
    },
    "y": {
        "AxisTitle": "Number of Pixels"
    },
    "z": {
        "AxisTitle": "z"
    }
}