{
    "Data": [81.0, 64.0, 83.0, 77.0, 78.0, 77.0, 73.0, 79.0, 61.0, 65.0, 60.0, 52.0, 65.0, 72.0, 68.0, 66.0, 56.0, 76.0, 68.0, 57.0, 61.0, 61.0, 74.0, 67.0, 65.0, 60.0, 64.0, 62.0, 58.0, 67.0, 64.0, 64.0, 64.0, 60.0, 48.0, 62.0, 46.0, 65.0, 74.0, 73.0, 63.0, 54.0, 53.0, 64.0, 54.0, 67.0, 51.0, 48.0, 60.0, 45.0, 60.0, 64.0, 47.0, 51.0, 46.0, 56.0, 48.0, 41.0, 67.0, 59.0, 45.0, 44.0, 57.0, 56.0, 55.0, 59.0, 60.0, 53.0, 57.0, 51.0, 59.0, 42.0, 53.0, 61.0, 57.0, 50.0, 62.0, 56.0, 45.0, 64.0, 53.0, 61.0, 53.0, 51.0, 47.0, 38.0, 48.0, 57.0, 49.0, 51.0, 49.0, 48.0, 56.0, 65.0, 57.0, 56.0, 60.0, 67.0, 67.0],
    "Name": "OccupancyDist-14",
    "Overflow": 189.0,
    "Type": "Histo1d",
    "Underflow": 70757.0,
    "x": {
        "AxisTitle": "Occupancy",
        "Bins": 99,
        "High": 99.5,
        "Low": 0.5
    },
    "y": {
        "AxisTitle": "Number of Pixels"
    },
    "z": {
        "AxisTitle": "z"
    }
}