{
    "Data": [701.0, 446.0, 334.0, 251.0, 177.0, 164.0, 148.0, 142.0, 111.0, 100.0, 88.0, 74.0, 65.0, 52.0, 50.0, 56.0, 53.0, 50.0, 45.0, 33.0, 38.0, 40.0, 38.0, 36.0, 25.0, 22.0, 32.0, 23.0, 31.0, 26.0, 17.0, 21.0, 17.0, 23.0, 24.0, 17.0, 16.0, 18.0, 9.0, 16.0, 12.0, 12.0, 6.0, 13.0, 10.0, 10.0, 12.0, 9.0, 9.0, 9.0, 7.0, 8.0, 12.0, 5.0, 11.0, 3.0, 3.0, 10.0, 7.0, 4.0, 2.0, 2.0, 6.0, 4.0, 5.0, 6.0, 8.0, 6.0, 4.0, 4.0, 4.0, 4.0, 4.0, 5.0, 2.0, 4.0, 4.0, 3.0, 4.0, 1.0, 1.0, 5.0, 4.0, 4.0, 1.0, 2.0, 1.0, 2.0, 1.0, 1.0, 0.0, 2.0, 0.0, 1.0, 0.0, 0.0, 0.0, 1.0, 1.0],
    "Name": "OccupancyDist-11",
    "Overflow": 3.0,
    "Type": "Histo1d",
    "Underflow": 72887.0,
    "x": {
        "AxisTitle": "Occupancy",
        "Bins": 99,
        "High": 99.5,
        "Low": 0.5
    },
    "y": {
        "AxisTitle": "Number of Pixels"
    },
    "z": {
        "AxisTitle": "z"
    }
}