{
    "Data": [16.0, 23.0, 21.0, 21.0, 21.0, 19.0, 15.0, 29.0, 35.0, 22.0, 16.0, 30.0, 30.0, 27.0, 25.0, 14.0, 31.0, 24.0, 34.0, 26.0, 34.0, 31.0, 31.0, 40.0, 24.0, 34.0, 34.0, 33.0, 33.0, 32.0, 46.0, 42.0, 52.0, 45.0, 49.0, 35.0, 34.0, 38.0, 47.0, 46.0, 40.0, 53.0, 56.0, 44.0, 35.0, 51.0, 56.0, 38.0, 44.0, 52.0, 54.0, 57.0, 51.0, 55.0, 46.0, 62.0, 57.0, 54.0, 54.0, 58.0, 56.0, 67.0, 51.0, 52.0, 56.0, 62.0, 60.0, 69.0, 54.0, 57.0, 82.0, 64.0, 72.0, 82.0, 45.0, 58.0, 62.0, 68.0, 77.0, 85.0, 88.0, 68.0, 89.0, 94.0, 93.0, 73.0, 80.0, 110.0, 107.0, 106.0, 91.0, 93.0, 110.0, 129.0, 140.0, 124.0, 155.0, 162.0, 170.0],
    "Name": "OccupancyDist-14",
    "Overflow": 508.0,
    "Type": "Histo1d",
    "Underflow": 70675.0,
    "x": {
        "AxisTitle": "Occupancy",
        "Bins": 99,
        "High": 99.5,
        "Low": 0.5
    },
    "y": {
        "AxisTitle": "Number of Pixels"
    },
    "z": {
        "AxisTitle": "z"
    }
}