{
    "Data": [705.0, 492.0, 322.0, 245.0, 191.0, 188.0, 125.0, 108.0, 109.0, 90.0, 75.0, 73.0, 71.0, 57.0, 70.0, 46.0, 45.0, 42.0, 39.0, 51.0, 42.0, 27.0, 28.0, 25.0, 25.0, 20.0, 14.0, 25.0, 22.0, 24.0, 16.0, 17.0, 19.0, 12.0, 15.0, 19.0, 11.0, 10.0, 13.0, 11.0, 10.0, 8.0, 5.0, 12.0, 13.0, 7.0, 12.0, 10.0, 10.0, 10.0, 6.0, 8.0, 3.0, 8.0, 3.0, 7.0, 3.0, 7.0, 6.0, 4.0, 4.0, 6.0, 3.0, 4.0, 4.0, 6.0, 2.0, 1.0, 3.0, 1.0, 1.0, 1.0, 3.0, 3.0, 3.0, 1.0, 4.0, 4.0, 3.0, 4.0, 2.0, 0.0, 0.0, 1.0, 0.0, 2.0, 3.0, 0.0, 3.0, 1.0, 0.0, 0.0, 1.0, 1.0, 0.0, 0.0, 2.0, 0.0, 0.0],
    "Name": "OccupancyDist-11",
    "Overflow": 3.0,
    "Type": "Histo1d",
    "Underflow": 73029.0,
    "x": {
        "AxisTitle": "Occupancy",
        "Bins": 99,
        "High": 99.5,
        "Low": 0.5
    },
    "y": {
        "AxisTitle": "Number of Pixels"
    },
    "z": {
        "AxisTitle": "z"
    }
}