{
    "Data": [3045.0, 2256.0, 2085.0, 2173.0, 34560.0, 5061466.0, 976129.0, 546166.0, 809803.0, 241951.0, 9.0, 6.0, 3.0, 5.0, 3.0, 6.0],
    "Name": "L1Dist",
    "Overflow": 86.0,
    "Type": "Histo1d",
    "Underflow": 0.0,
    "x": {
        "AxisTitle": "L1Id",
        "Bins": 16,
        "High": 15.5,
        "Low": -0.5
    },
    "y": {
        "AxisTitle": "Hits"
    },
    "z": {
        "AxisTitle": "z"
    }
}