{
    "Data": [398.0, 108.0, 49.0, 29.0, 21.0, 7.0, 7.0, 7.0, 6.0, 6.0, 1.0, 2.0, 3.0, 5.0, 6.0, 2.0, 2.0, 0.0, 2.0, 3.0, 2.0, 2.0, 1.0, 1.0, 1.0, 2.0, 2.0, 0.0, 1.0, 0.0, 6.0, 0.0, 2.0, 3.0, 2.0, 2.0, 1.0, 5.0, 4.0, 4.0, 0.0, 3.0, 0.0, 3.0, 2.0, 2.0, 3.0, 1.0, 1.0, 1.0, 1.0, 2.0, 2.0, 1.0, 0.0, 1.0, 0.0, 0.0, 0.0, 3.0, 1.0, 3.0, 1.0, 0.0, 1.0, 1.0, 1.0, 1.0, 1.0, 1.0, 0.0, 1.0, 1.0, 1.0, 1.0, 0.0, 1.0, 2.0, 2.0, 2.0, 1.0, 1.0, 1.0, 2.0, 2.0, 0.0, 2.0, 1.0, 0.0, 2.0, 2.0, 2.0, 2.0, 1.0, 4.0, 3.0, 4.0, 4.0, 11.0],
    "Name": "OccupancyDist-9",
    "Overflow": 38.0,
    "Type": "Histo1d",
    "Underflow": 75964.0,
    "x": {
        "AxisTitle": "Occupancy",
        "Bins": 99,
        "High": 99.5,
        "Low": 0.5
    },
    "y": {
        "AxisTitle": "Number of Pixels"
    },
    "z": {
        "AxisTitle": "z"
    }
}