{
    "Data": [52.0, 48.0, 27.0, 41.0, 31.0, 24.0, 32.0, 17.0, 17.0, 22.0, 37.0, 30.0, 37.0, 25.0, 50.0, 45.0, 49.0, 46.0, 44.0, 62.0, 61.0, 66.0, 87.0, 54.0, 89.0, 85.0, 105.0, 102.0, 98.0, 98.0, 119.0, 115.0, 110.0, 142.0, 124.0, 137.0, 135.0, 120.0, 106.0, 123.0, 100.0, 118.0, 107.0, 102.0, 90.0, 111.0, 108.0, 103.0, 90.0, 88.0, 112.0, 71.0, 91.0, 75.0, 78.0, 71.0, 69.0, 73.0, 60.0, 64.0, 70.0, 50.0, 60.0, 48.0, 44.0, 47.0, 49.0, 39.0, 36.0, 55.0, 38.0, 45.0, 49.0, 52.0, 53.0, 46.0, 53.0, 47.0, 44.0, 51.0, 43.0, 37.0, 37.0, 34.0, 32.0, 43.0, 41.0, 34.0, 26.0, 36.0, 30.0, 18.0, 18.0, 22.0, 14.0, 24.0, 19.0, 24.0, 20.0],
    "Name": "OccupancyDist-12",
    "Overflow": 181.0,
    "Type": "Histo1d",
    "Underflow": 70498.0,
    "x": {
        "AxisTitle": "Occupancy",
        "Bins": 99,
        "High": 99.5,
        "Low": 0.5
    },
    "y": {
        "AxisTitle": "Number of Pixels"
    },
    "z": {
        "AxisTitle": "z"
    }
}