{
    "Data": [1026.0, 719.0, 523.0, 335.0, 264.0, 204.0, 154.0, 136.0, 105.0, 112.0, 92.0, 57.0, 57.0, 68.0, 57.0, 52.0, 43.0, 48.0, 41.0, 22.0, 37.0, 29.0, 23.0, 26.0, 13.0, 12.0, 26.0, 22.0, 12.0, 22.0, 12.0, 8.0, 14.0, 12.0, 12.0, 9.0, 7.0, 10.0, 8.0, 8.0, 5.0, 8.0, 2.0, 3.0, 8.0, 4.0, 4.0, 4.0, 3.0, 9.0, 4.0, 2.0, 5.0, 2.0, 3.0, 5.0, 3.0, 3.0, 3.0, 4.0, 4.0, 6.0, 0.0, 1.0, 4.0, 1.0, 4.0, 3.0, 4.0, 4.0, 2.0, 2.0, 2.0, 3.0, 2.0, 3.0, 4.0, 1.0, 3.0, 2.0, 1.0, 2.0, 2.0, 2.0, 4.0, 4.0, 2.0, 5.0, 5.0, 3.0, 4.0, 5.0, 5.0, 6.0, 7.0, 8.0, 7.0, 10.0, 14.0],
    "Name": "OccupancyDist-10",
    "Overflow": 134.0,
    "Type": "Histo1d",
    "Underflow": 71994.0,
    "x": {
        "AxisTitle": "Occupancy",
        "Bins": 99,
        "High": 99.5,
        "Low": 0.5
    },
    "y": {
        "AxisTitle": "Number of Pixels"
    },
    "z": {
        "AxisTitle": "z"
    }
}