{
    "Data": [391.0, 130.0, 57.0, 43.0, 22.0, 14.0, 13.0, 13.0, 6.0, 2.0, 5.0, 3.0, 2.0, 2.0, 1.0, 3.0, 0.0, 1.0, 1.0, 2.0, 2.0, 1.0, 3.0, 0.0, 1.0, 2.0, 2.0, 2.0, 1.0, 2.0, 1.0, 2.0, 0.0, 0.0, 1.0, 0.0, 1.0, 0.0, 1.0, 0.0, 1.0, 0.0, 0.0, 0.0, 1.0, 0.0, 2.0, 0.0, 0.0, 0.0, 1.0, 1.0, 1.0, 0.0, 1.0, 0.0, 0.0, 0.0, 1.0, 0.0, 0.0, 1.0, 0.0, 0.0, 0.0, 1.0, 0.0, 0.0, 1.0, 0.0, 0.0, 0.0, 0.0, 1.0, 1.0, 0.0, 1.0, 3.0, 1.0, 1.0, 0.0, 0.0, 1.0, 0.0, 1.0, 1.0, 2.0, 1.0, 0.0, 1.0, 0.0, 5.0, 1.0, 2.0, 2.0, 0.0, 0.0, 2.0, 3.0],
    "Name": "OccupancyDist-3",
    "Overflow": 16.0,
    "Type": "Histo1d",
    "Underflow": 76009.0,
    "x": {
        "AxisTitle": "Occupancy",
        "Bins": 99,
        "High": 99.5,
        "Low": 0.5
    },
    "y": {
        "AxisTitle": "Number of Pixels"
    },
    "z": {
        "AxisTitle": "z"
    }
}