{
    "Data": [410.0, 445.0, 405.0, 425.0, 389.0, 347.0, 270.0, 269.0, 215.0, 177.0, 157.0, 134.0, 130.0, 121.0, 100.0, 83.0, 87.0, 68.0, 73.0, 69.0, 66.0, 44.0, 64.0, 53.0, 56.0, 51.0, 49.0, 47.0, 40.0, 56.0, 42.0, 44.0, 50.0, 37.0, 45.0, 36.0, 32.0, 23.0, 24.0, 29.0, 23.0, 34.0, 20.0, 21.0, 23.0, 20.0, 16.0, 23.0, 21.0, 9.0, 12.0, 14.0, 13.0, 14.0, 14.0, 11.0, 14.0, 10.0, 7.0, 8.0, 6.0, 7.0, 12.0, 7.0, 3.0, 7.0, 9.0, 6.0, 4.0, 9.0, 2.0, 3.0, 5.0, 2.0, 3.0, 1.0, 6.0, 3.0, 5.0, 2.0, 4.0, 4.0, 4.0, 2.0, 2.0, 3.0, 4.0, 2.0, 3.0, 2.0, 5.0, 4.0, 1.0, 2.0, 1.0, 7.0, 5.0, 10.0, 12.0],
    "Name": "OccupancyDist-10",
    "Overflow": 51.0,
    "Type": "Histo1d",
    "Underflow": 70981.0,
    "x": {
        "AxisTitle": "Occupancy",
        "Bins": 99,
        "High": 99.5,
        "Low": 0.5
    },
    "y": {
        "AxisTitle": "Number of Pixels"
    },
    "z": {
        "AxisTitle": "z"
    }
}