{
    "Data": [19.0, 5.0, 7.0, 16.0, 8.0, 9.0, 8.0, 7.0, 9.0, 7.0, 8.0, 8.0, 8.0, 14.0, 10.0, 9.0, 11.0, 11.0, 4.0, 7.0, 5.0, 17.0, 12.0, 11.0, 10.0, 10.0, 10.0, 11.0, 12.0, 13.0, 11.0, 12.0, 8.0, 9.0, 7.0, 7.0, 6.0, 10.0, 10.0, 9.0, 5.0, 9.0, 9.0, 6.0, 7.0, 6.0, 5.0, 8.0, 11.0, 18.0, 13.0, 20.0, 17.0, 16.0, 21.0, 22.0, 32.0, 30.0, 36.0, 32.0, 50.0, 48.0, 46.0, 42.0, 64.0, 71.0, 72.0, 69.0, 81.0, 101.0, 97.0, 120.0, 118.0, 117.0, 117.0, 139.0, 142.0, 142.0, 150.0, 151.0, 148.0, 175.0, 165.0, 175.0, 161.0, 163.0, 151.0, 176.0, 150.0, 157.0, 154.0, 144.0, 158.0, 158.0, 167.0, 180.0, 224.0, 250.0, 286.0],
    "Name": "OccupancyDist-11",
    "Overflow": 397.0,
    "Type": "Histo1d",
    "Underflow": 70416.0,
    "x": {
        "AxisTitle": "Occupancy",
        "Bins": 99,
        "High": 99.5,
        "Low": 0.5
    },
    "y": {
        "AxisTitle": "Number of Pixels"
    },
    "z": {
        "AxisTitle": "z"
    }
}