{
    "Data": [41.0, 32.0, 21.0, 25.0, 20.0, 29.0, 19.0, 28.0, 22.0, 19.0, 14.0, 12.0, 14.0, 17.0, 12.0, 24.0, 20.0, 14.0, 19.0, 19.0, 13.0, 11.0, 17.0, 9.0, 17.0, 19.0, 15.0, 13.0, 25.0, 31.0, 37.0, 39.0, 29.0, 34.0, 43.0, 40.0, 47.0, 48.0, 57.0, 63.0, 64.0, 72.0, 78.0, 70.0, 73.0, 81.0, 82.0, 101.0, 99.0, 103.0, 105.0, 104.0, 110.0, 90.0, 115.0, 107.0, 88.0, 95.0, 104.0, 124.0, 115.0, 97.0, 140.0, 108.0, 121.0, 102.0, 116.0, 82.0, 102.0, 81.0, 91.0, 87.0, 92.0, 86.0, 81.0, 64.0, 76.0, 62.0, 62.0, 64.0, 55.0, 58.0, 59.0, 58.0, 57.0, 67.0, 78.0, 87.0, 70.0, 85.0, 78.0, 64.0, 89.0, 92.0, 86.0, 76.0, 77.0, 82.0, 83.0],
    "Name": "OccupancyDist-10",
    "Overflow": 124.0,
    "Type": "Histo1d",
    "Underflow": 70553.0,
    "x": {
        "AxisTitle": "Occupancy",
        "Bins": 99,
        "High": 99.5,
        "Low": 0.5
    },
    "y": {
        "AxisTitle": "Number of Pixels"
    },
    "z": {
        "AxisTitle": "z"
    }
}