{
    "Data": [199.0, 124.0, 141.0, 136.0, 129.0, 109.0, 110.0, 97.0, 94.0, 101.0, 65.0, 74.0, 82.0, 72.0, 70.0, 59.0, 55.0, 67.0, 68.0, 85.0, 77.0, 118.0, 111.0, 124.0, 151.0, 173.0, 181.0, 181.0, 215.0, 239.0, 242.0, 263.0, 287.0, 276.0, 293.0, 335.0, 374.0, 333.0, 361.0, 375.0, 406.0, 443.0, 457.0, 433.0, 404.0, 446.0, 449.0, 457.0, 440.0, 464.0, 411.0, 409.0, 446.0, 429.0, 422.0, 420.0, 403.0, 411.0, 382.0, 414.0, 357.0, 364.0, 321.0, 322.0, 314.0, 282.0, 272.0, 248.0, 255.0, 217.0, 228.0, 195.0, 204.0, 197.0, 188.0, 196.0, 195.0, 227.0, 200.0, 197.0, 234.0, 239.0, 240.0, 220.0, 255.0, 258.0, 254.0, 272.0, 222.0, 238.0, 252.0, 244.0, 211.0, 197.0, 201.0, 161.0, 145.0, 141.0, 105.0],
    "Name": "OccupancyDist-2",
    "Overflow": 922.0,
    "Type": "Histo1d",
    "Underflow": 51618.0,
    "x": {
        "AxisTitle": "Occupancy",
        "Bins": 99,
        "High": 99.5,
        "Low": 0.5
    },
    "y": {
        "AxisTitle": "Number of Pixels"
    },
    "z": {
        "AxisTitle": "z"
    }
}