{
    "Data": [188.0, 221.0, 217.0, 221.0, 232.0, 234.0, 253.0, 246.0, 242.0, 244.0, 229.0, 240.0, 261.0, 260.0, 247.0, 257.0, 259.0, 241.0, 220.0, 219.0, 241.0, 208.0, 233.0, 220.0, 226.0, 208.0, 220.0, 209.0, 187.0, 206.0, 225.0, 231.0, 244.0, 263.0, 293.0, 309.0, 302.0, 336.0, 343.0, 355.0, 379.0, 386.0, 385.0, 361.0, 388.0, 387.0, 445.0, 426.0, 433.0, 413.0, 387.0, 436.0, 414.0, 436.0, 455.0, 398.0, 444.0, 410.0, 423.0, 388.0, 401.0, 418.0, 388.0, 339.0, 344.0, 324.0, 352.0, 272.0, 277.0, 253.0, 232.0, 233.0, 188.0, 189.0, 165.0, 133.0, 123.0, 113.0, 102.0, 82.0, 62.0, 68.0, 55.0, 61.0, 47.0, 51.0, 38.0, 49.0, 47.0, 52.0, 67.0, 64.0, 81.0, 89.0, 91.0, 85.0, 112.0, 143.0, 148.0],
    "Name": "OccupancyDist-3",
    "Overflow": 644.0,
    "Type": "Histo1d",
    "Underflow": 51834.0,
    "x": {
        "AxisTitle": "Occupancy",
        "Bins": 99,
        "High": 99.5,
        "Low": 0.5
    },
    "y": {
        "AxisTitle": "Number of Pixels"
    },
    "z": {
        "AxisTitle": "z"
    }
}