{
    "Data": [165.0, 134.0, 130.0, 141.0, 154.0, 158.0, 193.0, 201.0, 194.0, 213.0, 253.0, 250.0, 225.0, 249.0, 235.0, 260.0, 228.0, 240.0, 241.0, 249.0, 252.0, 236.0, 248.0, 237.0, 234.0, 224.0, 249.0, 221.0, 229.0, 259.0, 253.0, 292.0, 283.0, 261.0, 293.0, 295.0, 375.0, 358.0, 397.0, 405.0, 385.0, 424.0, 462.0, 434.0, 450.0, 478.0, 467.0, 461.0, 462.0, 454.0, 474.0, 472.0, 480.0, 508.0, 496.0, 446.0, 498.0, 427.0, 411.0, 443.0, 396.0, 408.0, 361.0, 363.0, 345.0, 266.0, 293.0, 247.0, 254.0, 230.0, 217.0, 201.0, 161.0, 142.0, 127.0, 109.0, 100.0, 89.0, 67.0, 68.0, 55.0, 48.0, 50.0, 44.0, 28.0, 41.0, 37.0, 28.0, 38.0, 33.0, 46.0, 33.0, 45.0, 46.0, 31.0, 42.0, 33.0, 20.0, 20.0],
    "Name": "OccupancyDist-1",
    "Overflow": 11.0,
    "Type": "Histo1d",
    "Underflow": 52781.0,
    "x": {
        "AxisTitle": "Occupancy",
        "Bins": 99,
        "High": 99.5,
        "Low": 0.5
    },
    "y": {
        "AxisTitle": "Number of Pixels"
    },
    "z": {
        "AxisTitle": "z"
    }
}