{
    "Data": [218.0, 163.0, 192.0, 197.0, 229.0, 237.0, 241.0, 270.0, 255.0, 260.0, 250.0, 277.0, 269.0, 265.0, 253.0, 262.0, 235.0, 256.0, 257.0, 247.0, 220.0, 243.0, 208.0, 222.0, 208.0, 212.0, 205.0, 227.0, 211.0, 211.0, 245.0, 241.0, 268.0, 280.0, 281.0, 298.0, 373.0, 352.0, 369.0, 372.0, 396.0, 371.0, 426.0, 437.0, 478.0, 434.0, 432.0, 409.0, 474.0, 449.0, 443.0, 458.0, 449.0, 416.0, 429.0, 435.0, 447.0, 418.0, 407.0, 371.0, 350.0, 380.0, 367.0, 329.0, 296.0, 286.0, 277.0, 274.0, 233.0, 246.0, 198.0, 176.0, 158.0, 140.0, 130.0, 111.0, 122.0, 91.0, 74.0, 84.0, 53.0, 85.0, 53.0, 52.0, 46.0, 52.0, 67.0, 65.0, 73.0, 61.0, 87.0, 79.0, 96.0, 91.0, 101.0, 122.0, 129.0, 113.0, 135.0],
    "Name": "OccupancyDist-3",
    "Overflow": 644.0,
    "Type": "Histo1d",
    "Underflow": 51616.0,
    "x": {
        "AxisTitle": "Occupancy",
        "Bins": 99,
        "High": 99.5,
        "Low": 0.5
    },
    "y": {
        "AxisTitle": "Number of Pixels"
    },
    "z": {
        "AxisTitle": "z"
    }
}