{
    "connectivity": [{
            "chipType": "RD53A",
            "chips": [{
                    "chipId": 1,
                    "config": "/home/atlasj/work/RD53AQuad/production/scan-operator/configs/rd53a/KEKQ18/chip1.json",
                    "enable": 1,
                    "name": "chip1",
                    "rx": 0,
                    "tx": 0
                }, {
                    "chipId": 2,
                    "config": "/home/atlasj/work/RD53AQuad/production/scan-operator/configs/rd53a/KEKQ18/chip2.json",
                    "enable": 1,
                    "name": "chip2",
                    "rx": 1,
                    "tx": 0
                }, {
                    "chipId": 3,
                    "config": "/home/atlasj/work/RD53AQuad/production/scan-operator/configs/rd53a/KEKQ18/chip3.json",
                    "enable": 1,
                    "name": "chip3",
                    "rx": 2,
                    "tx": 0
                }, {
                    "chipId": 4,
                    "config": "/home/atlasj/work/RD53AQuad/production/scan-operator/configs/rd53a/KEKQ18/chip4.json",
                    "enable": 1,
                    "name": "chip4",
                    "rx": 3,
                    "tx": 0
                }],
            "module": {
                "componentType": "module",
                "serialNumber": "KEKQ18"
            },
            "stage": "Testing"
        }],
    "ctrlCfg": {
        "ctrlCfg": {
            "cfg": {
                "cmdPeriod": 6.250000073038109e-9,
                "idle": {
                    "word": 1768515945
                },
                "pulse": {
                    "interval": 500,
                    "word": 1549575846
                },
                "rxPolarity": 0,
                "specNum": 0,
                "spiConfig": 541200,
                "sync": {
                    "interval": 32,
                    "word": 2172551550
                },
                "trigConfig": null,
                "txPolarity": 0
            },
            "type": "spec"
        }
    },
    "ctrlStatus": {
        "channel_configuration": "4x4",
        "fe_chip_type": "RD53A/B",
        "firmware_identifier": "0x2030231",
        "firmware_version": "0xfd97b05",
        "fmc_card_type": "Ohio Card (Display Port)",
        "fpga_card": "Trenz TEF1001_R2",
        "rx_speed": "640Mbps"
    },
    "dbCfg": {
        "KeyFile": "null",
        "auth": "default",
        "component": ["Front-end Chip", "Front-end Chips Wafer", "Hybrid", "Module", "Sensor Tile", "Sensor Wafer"],
        "dbName": "localdb",
        "environment": ["vddd_voltage", "vddd_current", "vdda_voltage", "vdda_current", "hv_voltage", "hv_current", "temperature", "vddcom_voltage", "vddcom_current", "module_temperature", "setting_temperature"],
        "hostIp": "atlastit01.kek.jp",
        "hostPort": "27017",
        "ssl": {
            "CAFile": "null",
            "PEMKeyFile": "null",
            "enabled": false
        },
        "stage": ["Bare Module", "Wire Bonded", "Potted", "Final Electrical", "Complete", "Loaded", "Parylene", "Initial Electrical", "Thermal Cycling", "Flex + Bare Module Attachment", "Testing"],
        "tls": {
            "CAFile": "null",
            "CertificateKeyFile": "null",
            "enabled": false
        },
        "verify": false
    },
    "exec": "-r /home/atlasj/work/RD53AQuad/production/scan-operator/configs/rd53a/KEKQ18/controller.json -c /home/atlasj/work/RD53AQuad/production/scan-operator/configs/rd53a/KEKQ18/connectivity.json -p -t -s /home/atlasj/work/RD53AQuad/production/yarr/configs/scans/rd53a/std_discbumpscan.json -m 0 -o /home/atlasj/work/RD53AQuad/production/scan-operator/data/210921_032 -W ",
    "finishTime": 1632209392,
    "runNumber": 48434,
    "siteCfg": {
        "code": "KEK"
    },
    "startTime": 1632209379,
    "stopwatch": {
        "analysis": 643,
        "config": 148,
        "processing": 0,
        "scan": 9689
    },
    "targetCharge": -1,
    "targetTot": -1,
    "testType": "std_discbumpscan",
    "timestamp": "2021-09-21_16:29:39",
    "userCfg": {
        "viewerUser": "hokuyama"
    }
}