{
    "Data": [59.0, 37.0, 34.0, 22.0, 16.0, 9.0, 21.0, 15.0, 8.0, 8.0, 15.0, 7.0, 9.0, 9.0, 13.0, 7.0, 8.0, 6.0, 6.0, 7.0, 9.0, 16.0, 9.0, 10.0, 3.0, 6.0, 7.0, 8.0, 6.0, 8.0, 6.0, 3.0, 3.0, 5.0, 5.0, 4.0, 5.0, 4.0, 4.0, 3.0, 3.0, 4.0, 2.0, 9.0, 5.0, 4.0, 7.0, 6.0, 7.0, 6.0, 7.0, 7.0, 8.0, 5.0, 6.0, 4.0, 5.0, 6.0, 6.0, 6.0, 6.0, 3.0, 7.0, 5.0, 0.0, 4.0, 8.0, 8.0, 4.0, 5.0, 3.0, 8.0, 6.0, 7.0, 3.0, 7.0, 5.0, 7.0, 7.0, 5.0, 10.0, 5.0, 7.0, 5.0, 8.0, 13.0, 12.0, 8.0, 7.0, 8.0, 8.0, 15.0, 13.0, 19.0, 14.0, 22.0, 21.0, 48.0, 72.0],
    "Name": "OccupancyDist-12",
    "Overflow": 1219.0,
    "Type": "Histo1d",
    "Underflow": 74605.0,
    "x": {
        "AxisTitle": "Occupancy",
        "Bins": 99,
        "High": 99.5,
        "Low": 0.5
    },
    "y": {
        "AxisTitle": "Number of Pixels"
    },
    "z": {
        "AxisTitle": "z"
    }
}