{
    "Data": [64.0, 36.0, 28.0, 17.0, 22.0, 16.0, 11.0, 8.0, 17.0, 13.0, 7.0, 7.0, 5.0, 4.0, 9.0, 8.0, 11.0, 6.0, 7.0, 6.0, 4.0, 6.0, 4.0, 7.0, 5.0, 2.0, 5.0, 3.0, 7.0, 2.0, 4.0, 6.0, 9.0, 4.0, 1.0, 5.0, 4.0, 4.0, 5.0, 0.0, 6.0, 3.0, 5.0, 4.0, 2.0, 5.0, 8.0, 7.0, 9.0, 4.0, 2.0, 0.0, 2.0, 4.0, 7.0, 3.0, 4.0, 4.0, 3.0, 1.0, 3.0, 9.0, 3.0, 2.0, 3.0, 5.0, 3.0, 4.0, 2.0, 8.0, 9.0, 2.0, 5.0, 5.0, 3.0, 4.0, 2.0, 6.0, 3.0, 3.0, 4.0, 6.0, 4.0, 1.0, 8.0, 3.0, 8.0, 11.0, 10.0, 6.0, 6.0, 11.0, 9.0, 7.0, 10.0, 12.0, 26.0, 19.0, 40.0],
    "Name": "OccupancyDist-5",
    "Overflow": 460.0,
    "Type": "Histo1d",
    "Underflow": 75583.0,
    "x": {
        "AxisTitle": "Occupancy",
        "Bins": 99,
        "High": 99.5,
        "Low": 0.5
    },
    "y": {
        "AxisTitle": "Number of Pixels"
    },
    "z": {
        "AxisTitle": "z"
    }
}