{
    "Data": [59.0, 25.0, 17.0, 9.0, 6.0, 7.0, 5.0, 10.0, 3.0, 8.0, 6.0, 5.0, 4.0, 3.0, 4.0, 5.0, 0.0, 6.0, 3.0, 3.0, 6.0, 3.0, 2.0, 4.0, 3.0, 2.0, 7.0, 3.0, 2.0, 2.0, 4.0, 5.0, 1.0, 2.0, 3.0, 1.0, 3.0, 0.0, 2.0, 2.0, 1.0, 5.0, 2.0, 3.0, 3.0, 5.0, 3.0, 4.0, 7.0, 3.0, 2.0, 3.0, 3.0, 2.0, 4.0, 3.0, 2.0, 4.0, 1.0, 1.0, 0.0, 3.0, 4.0, 2.0, 2.0, 3.0, 2.0, 1.0, 0.0, 1.0, 3.0, 1.0, 3.0, 2.0, 3.0, 3.0, 2.0, 3.0, 2.0, 1.0, 4.0, 3.0, 3.0, 4.0, 2.0, 1.0, 4.0, 3.0, 3.0, 1.0, 4.0, 9.0, 4.0, 9.0, 6.0, 11.0, 6.0, 10.0, 28.0],
    "Name": "OccupancyDist-3",
    "Overflow": 146.0,
    "Type": "Histo1d",
    "Underflow": 76192.0,
    "x": {
        "AxisTitle": "Occupancy",
        "Bins": 99,
        "High": 99.5,
        "Low": 0.5
    },
    "y": {
        "AxisTitle": "Number of Pixels"
    },
    "z": {
        "AxisTitle": "z"
    }
}