{
    "Data": [68.0, 32.0, 22.0, 23.0, 16.0, 12.0, 13.0, 15.0, 10.0, 12.0, 14.0, 10.0, 4.0, 9.0, 8.0, 9.0, 10.0, 3.0, 2.0, 2.0, 3.0, 2.0, 3.0, 6.0, 9.0, 3.0, 6.0, 6.0, 4.0, 5.0, 5.0, 4.0, 5.0, 9.0, 0.0, 4.0, 2.0, 9.0, 3.0, 4.0, 7.0, 5.0, 1.0, 2.0, 3.0, 4.0, 3.0, 5.0, 7.0, 3.0, 5.0, 3.0, 5.0, 1.0, 6.0, 1.0, 0.0, 3.0, 0.0, 4.0, 3.0, 3.0, 2.0, 6.0, 3.0, 9.0, 3.0, 5.0, 3.0, 5.0, 7.0, 3.0, 1.0, 4.0, 8.0, 1.0, 3.0, 7.0, 4.0, 5.0, 8.0, 4.0, 6.0, 2.0, 8.0, 6.0, 4.0, 6.0, 4.0, 11.0, 10.0, 9.0, 9.0, 7.0, 7.0, 22.0, 19.0, 18.0, 45.0],
    "Name": "OccupancyDist-9",
    "Overflow": 477.0,
    "Type": "Histo1d",
    "Underflow": 75579.0,
    "x": {
        "AxisTitle": "Occupancy",
        "Bins": 99,
        "High": 99.5,
        "Low": 0.5
    },
    "y": {
        "AxisTitle": "Number of Pixels"
    },
    "z": {
        "AxisTitle": "z"
    }
}